,C ATM,C CS-11,C CS-12,C CS-4,C CS-P.Valdivia,C Granulacion,C NPT 1-2,C NPT3,C NPT4,C PTS,C Prilado,C Secado L-3,C Secado L-4,Galpones,Losa Envasado,Romana 3,Romana Mto,Romana Salitre
1,0.0,0.0,0.0,3.4306658608838916,0.0,0.0,1.862645149230957e-09,0.4769397974014282,1.1837109923362732e-06,0.0,1.6742610968649387,0.0,1.3443190529942513,2.384185791015625e-07,0.0,4.725643992424011,6.104167550802231e-05,0.015824805945158005
2,0.0020752549171447754,0.0,0.0,1.1914078695699573,0.0,0.0,2.4028122425079346e-07,0.45580486766994,1.5543773770332336e-06,0.0,3.941539768129587,0.0,2.000356798991561,0.0,0.0,6.433966636657715,6.103795021772385e-05,0.007822179235517979
3,0.0009770393371582031,0.0,0.0,4.698243802413344,0.0,0.03125,2.7939677238464355e-09,0.44815084245055914,1.3597309589385986e-06,0.0,2.2076615281403065,0.28125,1.6918572252616286,0.0,2.408203125,6.343347549438477,1.862645149230957e-09,0.0005776071920990944
4,0.001953125,0.0,0.0,4.80273521784693,0.0,0.00781300663948059,2.7939677238464355e-09,1.9947302704676986,1.2256205081939697e-06,0.0,1.296984937041998,0.5,2.6278848676010966,0.0,1.46875,8.567996859550476,3.725290298461914e-09,9.97474417090416e-05
5,0.0,0.0,0.0,2.125000030733645,0.0,0.13281261920928955,0.0,1.0284215798601508,2.384185791015625e-07,0.0,0.3828430352732539,0.0,0.0025329608470201492,0.0,0.0625,1.8936717510223389,0.0,0.023499030619859695
6,1.4379620552062988e-06,0.0,0.00048828125,2.421875066123903,0.0078125,0.5048828125,0.01171875,3.704830748960376,0.0,0.0,0.645538330078125,0.0,1.1937296390533447,0.0,0.976806640625,3.696277678012848,1.2665987014770508e-07,7.653702050447464e-05
7,0.011910013854503632,0.0,0.0,3.19287218619138,0.00048828125,0.125244140625,0.20721447840332985,4.338575577363372,4.470348358154297e-07,0.0,4.682316605001688,0.2968751201406121,1.9583995398133993,0.0,1.4375,8.29623830318451,0.005859375,0.015850409865379333
8,0.00014162808656692505,0.0,0.0,4.361817286349833,0.0,0.0,0.035156507045030594,4.007472381927073,4.414469003677368e-07,0.0,2.7267584716901183,0.07812881469726562,2.3567374385893345,0.0,2.4044189453125,6.443247020244598,0.031280517578125,0.039581939578056335
9,0.03323078900575638,0.0,0.0,4.7055751867592335,0.0,2.9802322387695312e-08,0.07470730412751436,5.241302474401891,7.37607479095459e-07,0.0,4.2162790186703205,0.34423828125,1.8092262782156467,0.0,1.71136474609375,11.153554260730743,0.0059205312281847,0.0005851704627275467
10,0.00025606900453567505,0.0,0.0,5.654297321103513,0.0,0.125,0.004883023910224438,4.589671882800758,4.991888999938965e-07,0.0,2.8597874669358134,0.015625,1.4340478796511889,0.0,0.94390869140625,9.734406054019928,9.155459702014923e-05,0.0001764930784702301
11,0.000141143798828125,0.0,2.9802322387695312e-08,4.54687506519258,0.0,0.0078125,0.000976569950580597,3.19001526851207,0.0,0.0,1.752199174836278,0.5,1.0940657891333103,0.0,3.2548828125,5.948568761348724,0.0,0.0019579464569687843
12,0.000682830810546875,0.0,7.62939453125e-06,4.308594402857125,0.0,0.0,0.001953134313225746,3.624722220003605,1.1362135410308838e-07,0.0,2.503009518608451,0.31250762939453125,3.0022723702713847,0.0,1.5729026794433594,11.34660679101944,0.0,0.0003019943833351135
13,0.0022659972310066223,0.0,6.29425048828125e-05,5.754395402036607,0.0,0.0,0.12695360463112593,1.814666640944779,6.789341568946838e-07,0.0,3.8318576868623495,0.828125,1.5204476164653897,0.0,5.135421872138977,12.139101803302765,0.000244140625,0.0005578771233558655
14,0.01567082852125168,0.0,0.0,3.480470061302185,0.0078125,0.001953125,0.13098181039094925,1.2143829734995961,6.891787052154541e-07,0.0,1.3994730012491345,0.5625001192092896,2.6690437206998467,0.0,3.759655073285103,11.315428972244263,0.7501220777630806,0.5001568561419845
15,0.015625007450580597,0.0,0.0,5.618653264828026,0.0,0.15625,0.007934706285595894,2.0375775322318077,7.944181561470032e-07,0.0,1.5308696469292045,0.5000228881835938,2.0366314724087715,0.00048828125,1.9600602686405182,9.486745357513428,4.503906488418579,0.00020361412316560745
16,0.005859382450580597,0.0,0.0,5.667969390749931,0.0,0.0,0.007813097909092903,1.5647311303764582,9.117648005485535e-07,0.0,4.035308416001499,0.5,1.2633266523480415,0.0,2.823394775390625,9.015478312969208,4.0079345703125,0.00038156192749738693
17,0.0,0.0,0.0,3.132812519557774,3.814697265625e-06,0.0,0.001953127793967724,0.9514952497556806,7.450580596923828e-09,0.0,1.6113371858373284,0.189453125,1.078515350818634,0.0,1.9812469482421875,7.7709808349609375,0.2500152587890625,0.00018884800374507904
18,0.0003905743360519409,0.0,0.0,3.6796876741573215,0.0,0.1250000149011612,9.202957153320312e-05,2.334122270345688,0.0,0.0,6.649386913515627,0.0,1.8054395914077759,0.0,0.3191070556640625,9.917315483093262,0.0039081573486328125,0.004198198206722736
19,0.00034909695386886597,0.0,0.0,6.843750750645995,0.0,0.00024415552616119385,5.125999450683594e-06,2.2084803665056825,2.337619662284851e-07,0.0,5.564696105197072,0.0315093994140625,2.1031093979254365,0.0,4.696136474609375,10.889550626277924,6.105192005634308e-05,0.07866691052913666
20,0.0005894377827644348,0.0,0.0,4.604004718363285,0.0,0.0009765625,8.942559361457825e-06,2.8613056065514684,5.85801899433136e-07,0.0,5.6916286228224635,0.12506103515625,1.0006912089884281,0.0,0.9957427978515625,11.01620763540268,0.0020465878769755363,0.004106617532670498
21,8.778274059295654e-05,0.0,0.0,5.666993031278253,0.0,0.12506103515625,0.005865574814379215,1.741625185124576,6.016343832015991e-07,0.0,4.098767584189773,0.1259765625,2.1256665643304586,0.0,1.462677001953125,12.139645457267761,0.0040283240377902985,0.008029281161725521
22,1.1175870895385742e-08,0.0,0.0,4.759766403585672,0.0,0.125,0.003906250931322575,0.6490132287144661,8.093193173408508e-07,0.0,2.5940551785752177,0.0,2.074527384713292,0.0,0.26092529296875,9.029358863830566,0.0010375985875725746,0.00014656223356723785
23,2.9802322387695312e-08,0.0,0.0,5.3359375493600965,0.0,0.0,0.0,0.682513440027833,2.2351741790771484e-08,0.0,2.4790267944335938,0.0,0.8125443458557129,0.0,6.103515625e-05,0.832773745059967,0.0009765625,1.1444091796875e-05
24,6.10649585723877e-05,0.0,0.0,5.261230916716158,0.0,0.0,9.313225746154785e-10,0.15564849693328142,2.7101486921310425e-07,0.0,3.594108583405614,0.0,0.10983914323151112,0.0,3.0517578125e-05,7.662174999713898,9.313225746154785e-10,0.00016037095338106155
