,Unnamed: 0,trayecto,producto,Mes,Zona,Horas,N° Camiones,Precio Min [Millones CLP],Precio Max [Millones CLP],Precio Promedio [Millones CLP]
0,0,Salar de Atacama,MOP-H-BL,Julio,C NPT3,300.22,23.093846153846155,6.472050384615387,8.856489999999997,7.664270192307693
1,1,Salar de Atacama,MOP-H-BL,Julio,C Prilado,1.4433333333333331,0.111025641025641,0.031114935897435893,0.04257833333333333,0.03684663461538461
3,3,Salar de Atacama,MOP-H-BL,Julio,C ATM,5.7700000000000005,0.4438461538461537,0.12438788461538462,0.170215,0.14730144230769232
4,4,Salar de Atacama,MOP-H-BL,Julio,C Secado L-4,5.663333333333332,0.4356410256410256,0.12208839743589744,0.16706833333333332,0.14457836538461538
5,5,Salar de Atacama,MOP-H-BL,Julio,C CS-4,0.0,0.0,0.0,0.0,0.0
6,6,Salar de Atacama,MOP-H-BL,Julio,C NPT 1-2,31.680000000000003,2.4369230769230765,0.6829476923076924,0.9345599999999998,0.8087538461538462
8,8,Salar de Atacama,MOP-H-BL,Agosto,C NPT3,268.67,20.666923076923077,5.791905192307691,7.925765000000004,6.8588350961538485
9,9,Salar de Atacama,MOP-H-BL,Agosto,C Prilado,6.2733333333333325,0.4825641025641026,0.1352385897435897,0.1850633333333333,0.1601509615384615
11,11,Salar de Atacama,MOP-H-BL,Agosto,C ATM,4.42,0.34,0.09528500000000002,0.13039,0.1128375
12,12,Salar de Atacama,MOP-H-BL,Agosto,C Secado L-4,11.52,0.8861538461538461,0.24834461538461536,0.33984000000000003,0.29409230769230765
13,13,Salar de Atacama,MOP-H-BL,Agosto,C CS-4,15.276666666666667,1.175128205128205,0.32932967948717945,0.4506616666666666,0.3899956730769231
14,14,Salar de Atacama,MOP-H-BL,Agosto,C NPT 1-2,10.69,0.8223076923076922,0.2304517307692308,0.31535500000000005,0.2729033653846154
15,15,Salar de Atacama,MOP-H-BL,Septiembre,C Secado L-3,0.0,0.0,0.0,0.0,0.0
16,16,Salar de Atacama,MOP-H-BL,Septiembre,C NPT3,364.67666666666673,28.052051282051288,7.861587371794872,10.757961666666667,9.309774519230773
17,17,Salar de Atacama,MOP-H-BL,Septiembre,C Prilado,2.583333333333333,0.19871794871794876,0.055690705128205134,0.07620833333333332,0.06594951923076922
19,19,Salar de Atacama,MOP-H-BL,Septiembre,C ATM,32.90333333333333,2.531025641025641,0.7093199358974359,0.9706483333333332,0.8399841346153847
20,20,Salar de Atacama,MOP-H-BL,Septiembre,C Secado L-4,4.336666666666667,0.3335897435897436,0.09348852564102564,0.1279316666666667,0.11071009615384617
21,21,Salar de Atacama,MOP-H-BL,Septiembre,C NPT 1-2,34.92333333333333,2.6864102564102565,0.7528664743589745,1.0302383333333334,0.8915524038461541
23,23,Salar de Atacama,MOP-H-BL,Septiembre,C CS-11,0.4666666666666667,0.035897435897435895,0.010060256410256409,0.013766666666666668,0.011913461538461541
24,24,Salar de Atacama,MOP-H-BL,Octubre,C NPT3,253.67,19.513076923076927,5.4685398076923075,7.4832649999999985,6.475902403846152
25,25,Salar de Atacama,MOP-H-BL,Octubre,C Prilado,4.443333333333333,0.3417948717948718,0.09578801282051283,0.13107833333333332,0.11343317307692308
28,28,Salar de Atacama,MOP-H-BL,Octubre,C ATM,16.970000000000002,1.3053846153846154,0.3658340384615385,0.5006149999999999,0.4332245192307692
29,29,Salar de Atacama,MOP-H-BL,Octubre,C NPT4,0.0,0.0,0.0,0.0,0.0
30,30,Salar de Atacama,MOP-H-BL,Octubre,C CS-12,5.3100000000000005,0.4084615384615385,0.11447134615384615,0.15664500000000006,0.1355581730769231
31,31,Salar de Atacama,MOP-H-BL,Octubre,C PTS,48.84,3.7569230769230777,1.0528776923076923,1.4407800000000002,1.2468288461538464
32,32,Salar de Atacama,MOP-H-BL,Octubre,C Secado L-4,9.743333333333334,0.7494871794871796,0.21004378205128207,0.2874283333333333,0.2487360576923077
33,33,Salar de Atacama,MOP-H-BL,Octubre,C CS-4,98.46,7.573846153846155,2.122570384615385,2.9045700000000005,2.5135701923076934
34,34,Salar de Atacama,MOP-H-BL,Octubre,C NPT 1-2,39.073333333333345,3.0056410256410264,0.8423308974358975,1.1526633333333334,0.9974971153846156
35,35,Salar de Atacama,MOP-H-BL,Octubre,C Granulacion,0.0,0.0,0.0,0.0,0.0
36,36,Salar de Atacama,MOP-H-BL,Noviembre,C NPT3,345.69,26.591538461538462,7.452278653846152,10.197855000000002,8.825066826923079
37,37,Salar de Atacama,MOP-H-BL,Noviembre,C Prilado,1.666666666666667,0.12820512820512822,0.03592948717948718,0.04916666666666666,0.042548076923076925
40,40,Salar de Atacama,MOP-H-BL,Noviembre,C ATM,38.446666666666665,2.9574358974358974,0.8288214102564103,1.1341766666666662,0.9814990384615384
41,41,Salar de Atacama,MOP-H-BL,Noviembre,C NPT4,0.0,0.0,0.0,0.0,0.0
42,42,Salar de Atacama,MOP-H-BL,Noviembre,C CS-12,0.0,0.0,0.0,0.0,0.0
43,43,Salar de Atacama,MOP-H-BL,Noviembre,C PTS,0.3333333333333333,0.02564102564102564,0.007185897435897436,0.009833333333333336,0.008509615384615385
44,44,Salar de Atacama,MOP-H-BL,Noviembre,C Secado L-4,10.973333333333333,0.8441025641025639,0.2365597435897436,0.3237133333333333,0.2801365384615385
45,45,Salar de Atacama,MOP-H-BL,Noviembre,C CS-P.Valdivia,3.4433333333333334,0.2648717948717949,0.0742303205128205,0.10157833333333333,0.08790432692307691
46,46,Salar de Atacama,MOP-H-BL,Noviembre,C CS-4,22.116666666666664,1.701282051282051,0.4767842948717948,0.6524416666666665,0.5646129807692306
47,47,Salar de Atacama,MOP-H-BL,Noviembre,C NPT 1-2,46.95666666666667,3.612051282051282,1.012277371794872,1.3852216666666666,1.1987495192307691
48,48,Salar de Atacama,MOP-H-BL,Diciembre,C Prilado,0.0,0.0,0.0,0.0,0.0
51,51,Salar de Atacama,MOP-H-BL,Diciembre,C ATM,17.93,1.3792307692307693,0.3865294230769231,0.5289349999999999,0.4577322115384615
52,52,Salar de Atacama,MOP-H-BL,Diciembre,Losa Envasado,0.0,0.0,0.0,0.0,0.0
53,53,Salar de Atacama,MOP-H-BL,Diciembre,C Secado L-4,3.5766666666666667,0.2751282051282051,0.0771046794871795,0.10551166666666667,0.09130817307692307
54,54,Salar de Atacama,MOP-H-BL,Diciembre,C NPT 1-2,28.62666666666667,2.2020512820512823,0.6171248717948719,0.8444866666666667,0.7308057692307692
55,55,Salar de Atacama,MOP-H-BL,Diciembre,C NPT3,220.49000000000004,16.96076923076923,4.7532555769230775,6.504455000000003,5.628855288461539
56,56,Salar de Atacama,MOP-H-BL,Diciembre,C PTS,3.143333333333333,0.2417948717948718,0.06776301282051282,0.09272833333333334,0.08024567307692307
57,57,Salar de Atacama,SILVINITA,Julio,C NPT3,96.01000000000002,7.385384615384615,2.0697540384615385,2.832295,2.4510245192307694
58,58,Salar de Atacama,SILVINITA,Julio,C Prilado,2.1266666666666665,0.1635897435897436,0.04584602564102564,0.06273666666666666,0.05429134615384615
61,61,Salar de Atacama,SILVINITA,Julio,C Secado L-4,1.05,0.08076923076923076,0.022635576923076925,0.030975000000000006,0.026805288461538464
62,62,Salar de Atacama,SILVINITA,Julio,C ATM,0.0,0.0,0.0,0.0,0.0
63,63,Salar de Atacama,SILVINITA,Agosto,C NPT3,93.06666666666668,7.15897435897436,2.0063025641025645,2.7454666666666667,2.375884615384616
64,64,Salar de Atacama,SILVINITA,Agosto,C Prilado,2.1166666666666667,0.1628205128205128,0.04563044871794872,0.06244166666666666,0.054036057692307696
66,66,Salar de Atacama,SILVINITA,Agosto,C NPT4,0.0,0.0,0.0,0.0,0.0
67,67,Salar de Atacama,SILVINITA,Agosto,C Secado L-4,3.0,0.2307692307692308,0.06467307692307693,0.08850000000000002,0.07658653846153847
68,68,Salar de Atacama,SILVINITA,Agosto,C NPT 1-2,1.2833333333333334,0.09871794871794873,0.027665705128205133,0.03785833333333333,0.03276201923076923
69,69,Salar de Atacama,SILVINITA,Septiembre,C NPT3,70.33333333333333,5.41025641025641,1.5162243589743591,2.0748333333333333,1.795528846153846
70,70,Salar de Atacama,SILVINITA,Septiembre,C Prilado,2.246666666666667,0.17282051282051286,0.048432948717948725,0.06627666666666668,0.0573548076923077
72,72,Salar de Atacama,SILVINITA,Septiembre,C NPT4,0.0,0.0,0.0,0.0,0.0
73,73,Salar de Atacama,SILVINITA,Septiembre,C Secado L-4,1.51,0.11615384615384615,0.03255211538461538,0.044545,0.038548557692307694
74,74,Salar de Atacama,SILVINITA,Septiembre,C ATM,0.0,0.0,0.0,0.0,0.0
75,75,Salar de Atacama,SILVINITA,Octubre,C Prilado,0.06666666666666668,0.005128205128205128,0.0014371794871794869,0.0019666666666666665,0.0017019230769230768
77,77,Salar de Atacama,SILVINITA,Octubre,Losa Envasado,0.4833333333333333,0.03717948717948718,0.01041955128205128,0.014258333333333338,0.012338942307692308
78,78,Salar de Atacama,SILVINITA,Octubre,Galpones,1.5666666666666669,0.12051282051282053,0.03377371794871795,0.04621666666666667,0.03999519230769232
79,79,Salar de Atacama,SILVINITA,Octubre,C Secado L-4,0.4,0.030769230769230767,0.008623076923076924,0.0118,0.010211538461538465
80,80,Salar de Atacama,SILVINITA,Octubre,C NPT3,254.48,19.575384615384614,5.486001538461538,7.507159999999999,6.496580769230769
81,81,Salar de Atacama,SILVINITA,Octubre,C CS-4,2.183333333333333,0.16794871794871793,0.047067628205128206,0.06440833333333333,0.05573798076923077
82,82,Salar de Atacama,SILVINITA,Noviembre,C Prilado,0.75,0.05769230769230769,0.016168269230769233,0.022125,0.019146634615384614
85,85,Salar de Atacama,SILVINITA,Noviembre,C Secado L-4,5.253333333333334,0.4041025641025641,0.1132497435897436,0.15497333333333335,0.13411153846153848
86,86,Salar de Atacama,SILVINITA,Noviembre,C NPT3,141.36333333333332,10.874102564102564,3.047467243589745,4.170218333333334,3.6088427884615393
87,87,Salar de Atacama,SILVINITA,Diciembre,C NPT3,8.966666666666667,0.6897435897435897,0.19330064102564104,0.2645166666666667,0.22890865384615386
88,88,Nueva Victoria,SNIT,Julio,C NPT3,271.62666666666667,20.89435897435898,5.855644102564103,8.012986666666668,6.9343153846153855
91,91,Nueva Victoria,SNIT,Julio,Galpones,0.0,0.0,0.0,0.0,0.0
92,92,Nueva Victoria,SNIT,Julio,C NPT4,0.0,0.0,0.0,0.0,0.0
93,93,Nueva Victoria,SNIT,Julio,C PTS,64.87333333333333,4.990256410256411,1.3985193589743588,1.9137633333333333,1.656141346153846
94,94,Nueva Victoria,SNIT,Julio,C Secado L-4,4.453333333333333,0.3425641025641025,0.09600358974358976,0.13137333333333334,0.11368846153846154
95,95,Nueva Victoria,SNIT,Julio,C NPT 1-2,27.05666666666667,2.081282051282052,0.5832792948717949,0.7981716666666667,0.6907254807692308
96,96,Nueva Victoria,SNIT,Julio,C Granulacion,3.2,0.24615384615384614,0.06898461538461538,0.0944,0.08169230769230769
97,97,Nueva Victoria,SNIT,Agosto,C Secado L-3,0.0,0.0,0.0,0.0,0.0
98,98,Nueva Victoria,SNIT,Agosto,C NPT3,461.34000000000015,35.48769230769231,9.945425769230773,13.609530000000005,11.777477884615385
99,99,Nueva Victoria,SNIT,Agosto,C Prilado,2.0033333333333334,0.1541025641025641,0.04318724358974359,0.059098333333333336,0.05114278846153846
102,102,Nueva Victoria,SNIT,Agosto,Losa Envasado,1.49,0.11461538461538462,0.032120961538461536,0.043955,0.03803798076923077
103,103,Nueva Victoria,SNIT,Agosto,C NPT4,0.0,0.0,0.0,0.0,0.0
104,104,Nueva Victoria,SNIT,Agosto,C PTS,133.3,10.253846153846156,2.873640384615384,3.932350000000001,3.4029951923076927
105,105,Nueva Victoria,SNIT,Agosto,C Secado L-4,9.066666666666665,0.6974358974358974,0.19545641025641025,0.26746666666666663,0.23146153846153844
106,106,Nueva Victoria,SNIT,Agosto,C NPT 1-2,21.790000000000006,1.6761538461538463,0.4697421153846154,0.6428050000000001,0.5562735576923078
107,107,Nueva Victoria,SNIT,Septiembre,C NPT3,452.1966666666667,34.78435897435898,9.748316602564104,13.339801666666665,11.544059134615386
108,108,Nueva Victoria,SNIT,Septiembre,C Prilado,0.9,0.06923076923076922,0.01940192307692308,0.026550000000000004,0.022975961538461542
110,110,Nueva Victoria,SNIT,Septiembre,C ATM,5.790000000000001,0.4453846153846153,0.12481903846153848,0.17080499999999998,0.14781201923076925
111,111,Nueva Victoria,SNIT,Septiembre,Losa Envasado,3.6666666666666665,0.28205128205128205,0.0790448717948718,0.10816666666666667,0.09360576923076924
112,112,Nueva Victoria,SNIT,Septiembre,Galpones,0.0,0.0,0.0,0.0,0.0
113,113,Nueva Victoria,SNIT,Septiembre,C PTS,98.3333333333333,7.564102564102565,2.1198397435897443,2.9008333333333334,2.5103365384615386
114,114,Nueva Victoria,SNIT,Septiembre,C Secado L-4,9.966666666666667,0.7666666666666667,0.21485833333333335,0.2940166666666667,0.25443750000000004
115,115,Nueva Victoria,SNIT,Septiembre,C NPT 1-2,59.72000000000001,4.593846153846154,1.2874253846153845,1.76174,1.5245826923076922
117,117,Nueva Victoria,SNIT,Septiembre,C CS-4,125.37000000000002,9.643846153846154,2.702687884615385,3.698415,3.2005514423076926
118,118,Nueva Victoria,SNIT,Octubre,C Secado L-3,0.43333333333333335,0.03333333333333333,0.009341666666666668,0.01278333333333333,0.0110625
119,119,Nueva Victoria,SNIT,Octubre,C NPT3,477.00000000000006,36.692307692307686,10.283019230769233,14.071500000000002,12.177259615384614
120,120,Nueva Victoria,SNIT,Octubre,C Prilado,3.37,0.2592307692307693,0.0726494230769231,0.099415,0.08603221153846155
123,123,Nueva Victoria,SNIT,Octubre,C ATM,5.120000000000001,0.3938461538461539,0.11037538461538464,0.15104,0.1307076923076923
124,124,Nueva Victoria,SNIT,Octubre,Losa Envasado,4.656666666666666,0.3582051282051282,0.10038698717948716,0.13737166666666667,0.11887932692307693
125,125,Nueva Victoria,SNIT,Octubre,Galpones,2.6333333333333333,0.20256410256410254,0.05676858974358974,0.07768333333333333,0.06722596153846153
126,126,Nueva Victoria,SNIT,Octubre,C NPT4,3.2966666666666664,0.2535897435897436,0.07106852564102566,0.09725166666666668,0.08416009615384618
127,127,Nueva Victoria,SNIT,Octubre,C PTS,10.673333333333334,0.8210256410256411,0.23009243589743594,0.3148633333333333,0.27247788461538464
128,128,Nueva Victoria,SNIT,Octubre,C Secado L-4,3.91,0.3007692307692308,0.08429057692307691,0.115345,0.09981778846153846
129,129,Nueva Victoria,SNIT,Octubre,C CS-4,316.38,24.336923076923078,6.820422692307693,9.33321,8.076816346153848
130,130,Nueva Victoria,SNIT,Octubre,C NPT 1-2,2.1933333333333334,0.16871794871794873,0.047283205128205136,0.06470333333333332,0.055993269230769235
131,131,Nueva Victoria,SNIT,Octubre,C Granulacion,0.0,0.0,0.0,0.0,0.0
132,132,Nueva Victoria,SNIT,Octubre,C CS-12,0.0,0.0,0.0,0.0,0.0
133,133,Nueva Victoria,SNIT,Noviembre,C NPT3,353.98,27.22923076923077,7.630991923076924,10.44241,9.036700961538463
134,134,Nueva Victoria,SNIT,Noviembre,C Prilado,2.066666666666667,0.15897435897435902,0.0445525641025641,0.060966666666666676,0.05275961538461539
137,137,Nueva Victoria,SNIT,Noviembre,C ATM,0.5333333333333333,0.04102564102564103,0.011497435897435895,0.015733333333333332,0.013615384615384614
138,138,Nueva Victoria,SNIT,Noviembre,Galpones,0.0,0.0,0.0,0.0,0.0
139,139,Nueva Victoria,SNIT,Noviembre,C NPT4,3.1866666666666665,0.2451282051282052,0.06869717948717947,0.09400666666666667,0.08135192307692307
140,140,Nueva Victoria,SNIT,Noviembre,C Secado L-4,4.3966666666666665,0.3382051282051282,0.0947819871794872,0.1297016666666667,0.11224182692307694
141,141,Nueva Victoria,SNIT,Noviembre,C CS-4,268.06000000000006,20.62,5.778755,7.907769999999999,6.8432625
142,142,Nueva Victoria,SNIT,Noviembre,C NPT 1-2,37.823333333333345,2.90948717948718,0.8153837820512819,1.1157883333333334,0.9655860576923077
143,143,Nueva Victoria,SNIT,Noviembre,C Granulacion,2.493333333333333,0.19179487179487176,0.053750512820512825,0.07355333333333333,0.06365192307692308
144,144,Nueva Victoria,SNIT,Diciembre,C NPT3,197.69666666666663,15.207435897435895,4.261883910256412,5.832051666666667,5.046967788461538
145,145,Nueva Victoria,SNIT,Diciembre,C Prilado,0.5166666666666667,0.03974358974358975,0.011138141025641023,0.015241666666666669,0.013189903846153846
148,148,Nueva Victoria,SNIT,Diciembre,C NPT4,0.6033333333333333,0.04641025641025641,0.01300647435897436,0.017798333333333333,0.015402403846153847
149,149,Nueva Victoria,SNIT,Diciembre,C Secado L-4,1.15,0.08846153846153845,0.02479134615384615,0.03392499999999999,0.02935817307692307
150,150,Nueva Victoria,SNIT,Diciembre,C CS-4,929.1,71.46923076923079,20.029251923076924,27.40845,23.718850961538454
151,151,Nueva Victoria,SNIT,Diciembre,C NPT 1-2,3.3833333333333333,0.2602564102564102,0.07293685897435898,0.09980833333333332,0.08637259615384615
153,153,Tocopilla,NPC-TA 50 F,Julio,C NPT4,0.0,0.0,0.0,0.0,0.0
154,154,Tocopilla,NPC-TA 50 F,Julio,C Secado L-4,11.316666666666665,0.8705128205128205,0.2439612179487179,0.3338416666666667,0.2889014423076923
155,155,Tocopilla,NPC-TA 50 F,Julio,C NPT3,0.94,0.07230769230769231,0.020264230769230767,0.02773,0.023997115384615388
156,156,Tocopilla,NPC-TA 50 F,Julio,C Granulacion,0.0,0.0,0.0,0.0,0.0
157,157,Tocopilla,NPC-TA 50 F,Agosto,C Secado L-3,0.0,0.0,0.0,0.0,0.0
159,159,Tocopilla,NPC-TA 50 F,Agosto,C NPT4,0.016666666666666666,0.001282051282051282,0.00035929487179487177,0.0004916666666666666,0.0004254807692307692
160,160,Tocopilla,NPC-TA 50 F,Agosto,C Secado L-4,37.34333333333335,2.8725641025641027,0.8050360897435899,1.1016283333333334,0.9533322115384616
161,161,Tocopilla,NPC-TA 50 F,Agosto,C NPT3,0.0,0.0,0.0,0.0,0.0
162,162,Tocopilla,NPC-TA 50 F,Agosto,C Prilado,0.0,0.0,0.0,0.0,0.0
163,163,Tocopilla,NPC-TA 50 F,Agosto,Losa Envasado,0.05,0.003846153846153847,0.0010778846153846155,0.0014750000000000002,0.001276442307692308
164,164,Tocopilla,NPC-TA 50 F,Agosto,C PTS,0.02333333333333331,0.0017948717948717934,0.0005030128205128201,0.0006883333333333327,0.0005956730769230763
165,165,Tocopilla,NPC-TA 50 F,Septiembre,C Prilado,0.0733333333333333,0.005641025641025639,0.001580897435897435,0.0021633333333333326,0.001872115384615384
168,168,Tocopilla,NPC-TA 50 F,Septiembre,Losa Envasado,3.583333333333333,0.2756410256410257,0.07724839743589744,0.10570833333333332,0.09147836538461536
169,169,Tocopilla,NPC-TA 50 F,Septiembre,Galpones,0.016666666666666666,0.001282051282051282,0.00035929487179487177,0.0004916666666666666,0.0004254807692307692
170,170,Tocopilla,NPC-TA 50 F,Septiembre,C NPT4,0.06666666666666668,0.005128205128205128,0.0014371794871794869,0.0019666666666666665,0.0017019230769230768
171,171,Tocopilla,NPC-TA 50 F,Septiembre,C Secado L-4,77.02999999999999,5.925384615384614,1.6605890384615387,2.2723850000000003,1.9664870192307693
172,172,Tocopilla,NPC-TA 50 F,Septiembre,C NPT3,0.02333333333333331,0.0017948717948717934,0.0005030128205128201,0.0006883333333333327,0.0005956730769230763
173,173,Tocopilla,NPC-TA 50 F,Septiembre,C NPT 1-2,0.0,0.0,0.0,0.0,0.0
174,174,Tocopilla,NPC-TA 50 F,Octubre,C Prilado,0.0,0.0,0.0,0.0,0.0
176,176,Tocopilla,NPC-TA 50 F,Octubre,C NPT4,0.5233333333333333,0.040256410256410254,0.011281858974358972,0.015438333333333332,0.013360096153846151
177,177,Tocopilla,NPC-TA 50 F,Octubre,C Secado L-4,31.856666666666666,2.4505128205128206,0.6867562179487179,0.9397716666666666,0.8132639423076922
178,178,Tocopilla,NPC-TA 50 F,Octubre,C Granulacion,0.0,0.0,0.0,0.0,0.0
179,179,Tocopilla,NPC-TA 50 F,Octubre,C NPT3,0.0,0.0,0.0,0.0,0.0
180,180,Tocopilla,NPC-TA 50 F,Noviembre,C Prilado,0.5666666666666667,0.04358974358974359,0.01221602564102564,0.01671666666666666,0.014466346153846153
182,182,Tocopilla,NPC-TA 50 F,Noviembre,C NPT4,0.0,0.0,0.0,0.0,0.0
183,183,Tocopilla,NPC-TA 50 F,Noviembre,C Secado L-4,80.59666666666666,6.199743589743592,1.737478141025641,2.377601666666666,2.0575399038461537
184,184,Tocopilla,NPC-TA 50 F,Noviembre,C Granulacion,0.10666666666666663,0.008205128205128203,0.002299487179487179,0.0031466666666666665,0.002723076923076923
185,185,Tocopilla,NPC-TA 50 F,Noviembre,C NPT3,3.1066666666666665,0.23897435897435895,0.06697256410256411,0.09164666666666664,0.07930961538461538
186,186,Tocopilla,NPC-TA 50 F,Noviembre,C CS-4,2.6333333333333333,0.20256410256410254,0.05676858974358974,0.07768333333333333,0.06722596153846153
188,188,Tocopilla,NPC-TA 50 F,Diciembre,C Secado L-4,0.4366666666666666,0.03358974358974358,0.009413525641025641,0.012881666666666665,0.011147596153846152
189,189,Tocopilla,NPC-TA 50 H,Julio,C Secado L-3,0.64,0.04923076923076923,0.013796923076923076,0.01888,0.016338461538461538
191,191,Tocopilla,NPC-TA 50 H,Julio,Losa Envasado,2.723333333333333,0.2094871794871795,0.05870878205128205,0.08033833333333333,0.0695235576923077
192,192,Tocopilla,NPC-TA 50 H,Julio,C NPT4,0.0,0.0,0.0,0.0,0.0
193,193,Tocopilla,NPC-TA 50 H,Julio,C Secado L-4,82.51333333333334,6.347179487179487,1.778797051282051,2.434143333333333,2.1064701923076923
194,194,Tocopilla,NPC-TA 50 H,Julio,C Granulacion,0.0,0.0,0.0,0.0,0.0
195,195,Tocopilla,NPC-TA 50 H,Julio,C NPT3,0.38333333333333336,0.029487179487179487,0.008263782051282052,0.011308333333333335,0.009786057692307695
197,197,Tocopilla,NPC-TA 50 H,Agosto,C Secado L-4,1.153333333333333,0.0887179487179487,0.024863205128205126,0.03402333333333333,0.029443269230769224
198,198,Tocopilla,NPC-TA 50 H,Agosto,C Prilado,0.0,0.0,0.0,0.0,0.0
199,199,Tocopilla,NPC-TA 50 H,Septiembre,C Prilado,0.8833333333333333,0.06794871794871794,0.0190426282051282,0.026058333333333333,0.022550480769230767
201,201,Tocopilla,NPC-TA 50 H,Septiembre,C Secado L-4,16.810000000000002,1.2930769230769228,0.3623848076923077,0.495895,0.42913990384615386
202,202,Tocopilla,NPC-TA 50 H,Octubre,C NPT3,3.6566666666666663,0.2812820512820513,0.07882929487179488,0.10787166666666667,0.09335048076923078
203,203,Tocopilla,NPC-TA 50 H,Octubre,C Prilado,0.0,0.0,0.0,0.0,0.0
205,205,Tocopilla,NPC-TA 50 H,Octubre,C NPT4,0.0,0.0,0.0,0.0,0.0
206,206,Tocopilla,NPC-TA 50 H,Octubre,C Secado L-4,54.276666666666664,4.175128205128205,1.1700796794871793,1.6011616666666666,1.385620673076923
207,207,Tocopilla,NPC-TA 50 H,Octubre,C CS-4,0.0,0.0,0.0,0.0,0.0
208,208,Tocopilla,NPC-TA 50 H,Octubre,C ATM,0.11666666666666667,0.008974358974358974,0.002515064102564102,0.003441666666666667,0.0029783653846153853
209,209,Tocopilla,NPC-TA 50 H,Noviembre,C NPT3,0.3,0.023076923076923075,0.006467307692307692,0.008849999999999998,0.007658653846153844
212,212,Tocopilla,NPC-TA 50 H,Noviembre,C ATM,0.0,0.0,0.0,0.0,0.0
213,213,Tocopilla,NPC-TA 50 H,Noviembre,C NPT4,0.0,0.0,0.0,0.0,0.0
214,214,Tocopilla,NPC-TA 50 H,Noviembre,C Secado L-4,98.50333333333332,7.577179487179487,2.1235045512820507,2.9058483333333336,2.5146764423076924
215,215,Tocopilla,NPC-TA 50 H,Noviembre,C CS-4,1.6,0.12307692307692307,0.0344923076923077,0.047200000000000006,0.04084615384615385
216,216,Tocopilla,NPC-TA 50 H,Noviembre,C Granulacion,5.916666666666668,0.4551282051282052,0.1275496794871795,0.17454166666666665,0.15104567307692307
218,218,Tocopilla,NPC-TA 50 H,Diciembre,C NPT4,0.0,0.0,0.0,0.0,0.0
219,219,Tocopilla,NPC-TA 50 H,Diciembre,C Secado L-4,69.70666666666666,5.362051282051281,1.5027148717948715,2.0563466666666668,1.7795307692307691
220,220,Tocopilla,NPC-TA 50 H,Diciembre,C Secado L-3,0.0,0.0,0.0,0.0,0.0
221,221,Tocopilla,NPC-TA 50 H,Diciembre,C Prilado,0.7733333333333333,0.059487179487179485,0.01667128205128205,0.02281333333333333,0.01974230769230769
222,222,Tocopilla,NPC-TA 50 H,Diciembre,Losa Envasado,0.1,0.007692307692307694,0.002155769230769231,0.0029500000000000004,0.002552884615384616
223,223,Tocopilla,NPC-TA 50 H,Diciembre,C CS-P.Valdivia,1.0733333333333337,0.08256410256410257,0.023138589743589743,0.03166333333333333,0.02740096153846154
225,225,Tocopilla,SSI,Julio,C Granulacion,2.17,0.16692307692307695,0.046780192307692314,0.064015,0.05539759615384615
226,226,Tocopilla,SSI,Julio,C NPT3,0.30666666666666664,0.023589743589743587,0.006611025641025641,0.009046666666666666,0.007828846153846153
227,227,Tocopilla,SSI,Julio,C PTS,0.30666666666666664,0.023589743589743587,0.00661102564102564,0.009046666666666666,0.007828846153846153
228,228,Tocopilla,SSI,Julio,C Secado L-4,0.0,0.0,0.0,0.0,0.0
229,229,Tocopilla,SSI,Agosto,C Prilado,0.4233333333333333,0.03256410256410256,0.009126089743589742,0.01248833333333333,0.010807211538461536
231,231,Tocopilla,SSI,Septiembre,C Prilado,2.9766666666666666,0.22897435897435894,0.0641700641025641,0.08781166666666668,0.07599086538461539
233,233,Tocopilla,SSI,Septiembre,C NPT4,0.0,0.0,0.0,0.0,0.0
235,235,Tocopilla,SSI,Septiembre,C Secado L-4,0.48,0.03692307692307692,0.010347692307692306,0.01416,0.012253846153846152
236,236,Tocopilla,SSI,Septiembre,C NPT3,2.273333333333333,0.17487179487179488,0.049007820512820516,0.06706333333333332,0.058035576923076926
237,237,Tocopilla,SSI,Octubre,C NPT3,0.8,0.061538461538461535,0.01724615384615385,0.023600000000000003,0.02042307692307693
238,238,Tocopilla,SSI,Octubre,C Prilado,3.14,0.2415384615384615,0.06769115384615385,0.09263,0.08016057692307693
240,240,Tocopilla,SSI,Octubre,C Secado L-4,0.58,0.04461538461538461,0.012503461538461538,0.017109999999999997,0.014806730769230766
241,241,Tocopilla,SSI,Diciembre,C Prilado,4.273333333333333,0.3287179487179487,0.09212320512820513,0.1260633333333333,0.10909326923076923
243,243,Tocopilla,SSI,Diciembre,C Secado L-4,6.2200000000000015,0.4784615384615386,0.13408884615384614,0.18349000000000004,0.15878942307692312
244,244,Tocopilla,SSI,Diciembre,Losa Envasado,0.0,0.0,0.0,0.0,0.0
245,245,Tocopilla,QROP-KS,Julio,C Prilado,0.99,0.07615384615384617,0.021342115384615383,0.029204999999999995,0.02527355769230769
247,247,Tocopilla,QROP-KS,Julio,C NPT3,1.4733333333333334,0.11333333333333336,0.031761666666666674,0.04346333333333333,0.037612500000000014
248,248,Tocopilla,QROP-KS,Agosto,C Prilado,3.663333333333333,0.28179487179487184,0.07897301282051282,0.10806833333333336,0.09352067307692308
250,250,Tocopilla,QROP-KS,Agosto,C NPT4,0.0,0.0,0.0,0.0,0.0
251,251,Tocopilla,QROP-KS,Agosto,C NPT3,0.0,0.0,0.0,0.0,0.0
252,252,Tocopilla,QROP-KS,Agosto,C ATM,0.0,0.0,0.0,0.0,0.0
253,253,Tocopilla,QROP-KS,Septiembre,C Prilado,9.493333333333332,0.7302564102564102,0.20465435897435894,0.2800533333333333,0.2423538461538461
256,256,Tocopilla,QROP-KS,Septiembre,Losa Envasado,0.0,0.0,0.0,0.0,0.0
257,257,Tocopilla,QROP-KS,Septiembre,C NPT3,0.35,0.026923076923076918,0.007545192307692307,0.010325,0.008935096153846155
258,258,Tocopilla,QROP-KS,Septiembre,C ATM,0.0,0.0,0.0,0.0,0.0
259,259,Tocopilla,QROP-KS,Septiembre,C NPT4,0.14,0.010769230769230769,0.0030180769230769232,0.00413,0.003574038461538461
260,260,Tocopilla,QROP-KS,Octubre,C Prilado,0.4666666666666667,0.0358974358974359,0.010060256410256409,0.013766666666666668,0.011913461538461541
262,262,Tocopilla,QROP-KS,Octubre,C NPT3,0.08333333333333333,0.00641025641025641,0.0017964743589743586,0.0024583333333333336,0.002127403846153846
263,263,Tocopilla,QROP-KS,Noviembre,C Prilado,1.1266666666666665,0.08666666666666666,0.024288333333333332,0.033236666666666664,0.028762499999999993
265,265,Tocopilla,QROP-KS,Noviembre,C NPT 1-2,1.89,0.1453846153846154,0.040744038461538463,0.05575499999999999,0.048249519230769235
266,266,Tocopilla,QROP-KS,Diciembre,C Prilado,2.3200000000000003,0.17846153846153848,0.05001384615384615,0.06844000000000001,0.05922692307692307
268,268,Tocopilla,QROP-KS,Diciembre,C NPT4,0.0,0.0,0.0,0.0,0.0
269,269,Tocopilla,QROP-KS,Diciembre,C CS-P.Valdivia,0.0,0.0,0.0,0.0,0.0
270,270,Tocopilla,QROP-KS,Diciembre,C NPT3,1.1,0.08461538461538462,0.023713461538461537,0.03245,0.02808173076923077
271,271,Tocopilla,QROP-K PLUS,Noviembre,C Prilado,7.653333333333333,0.5887179487179487,0.1649882051282051,0.2257733333333333,0.1953807692307692
273,273,Tocopilla,QROP-K PLUS,Noviembre,C NPT4,0.0,0.0,0.0,0.0,0.0
274,274,Tocopilla,QROP-K PLUS,Noviembre,C Granulacion,0.21666666666666667,0.016666666666666666,0.004670833333333332,0.006391666666666665,0.00553125
275,275,Tocopilla,QROP-K PLUS,Noviembre,C NPT3,0.3733333333333333,0.028717948717948718,0.008048205128205126,0.011013333333333332,0.009530769230769228
276,276,Tocopilla,QROP-K PLUS,Diciembre,C Prilado,0.18333333333333326,0.0141025641025641,0.003952243589743589,0.005408333333333333,0.0046802884615384606
