,C ATM,C CS-11,C CS-12,C CS-4,C CS-P.Valdivia,C Granulacion,C NPT 1-2,C NPT3,C NPT4,C PTS,C Prilado,C Secado L-3,C Secado L-4,Galpones,Losa Envasado,Romana 3,Romana Mto,Romana Salitre
1,3.0,0.0,0.0,10.0,0.0,0.0,3.0,9.0,10.0,2.0,7.0,0.0,8.0,4.0,1.0,11.0,3.0,10.0
2,7.0,0.0,1.0,8.0,1.0,1.0,3.0,12.0,14.0,2.0,10.0,1.0,9.0,12.0,4.0,19.0,3.0,10.0
3,3.0,0.0,0.0,13.0,2.0,1.0,3.0,14.0,11.0,6.0,10.0,2.0,9.0,8.0,6.0,21.0,4.0,16.0
4,2.0,1.0,1.0,8.0,1.0,2.0,2.0,14.0,13.0,4.0,12.0,2.0,8.0,2.0,6.0,23.0,4.0,9.0
5,6.0,1.0,2.0,10.0,0.0,1.0,2.0,13.0,10.0,6.0,6.0,1.0,5.0,6.0,3.0,14.0,3.0,16.0
6,9.0,1.0,1.0,8.0,1.0,2.0,3.0,16.0,9.0,6.0,8.0,1.0,10.0,8.0,5.0,17.0,5.0,15.0
7,9.0,2.0,2.0,11.0,1.0,2.0,6.0,17.0,12.0,6.0,15.0,2.0,9.0,7.0,5.0,22.0,3.0,17.0
8,9.0,2.0,1.0,12.0,1.0,1.0,7.0,18.0,15.0,4.0,15.0,2.0,9.0,4.0,7.0,23.0,4.0,16.0
9,9.0,2.0,1.0,12.0,1.0,2.0,15.0,18.0,17.0,4.0,9.0,3.0,8.0,6.0,6.0,24.0,5.0,13.0
10,7.0,4.0,1.0,10.0,1.0,1.0,9.0,18.0,15.0,4.0,13.0,1.0,9.0,4.0,4.0,24.0,4.0,17.0
11,14.0,1.0,1.0,11.0,1.0,1.0,6.0,18.0,10.0,7.0,13.0,2.0,8.0,7.0,6.0,24.0,3.0,17.0
12,7.0,1.0,1.0,10.0,6.0,0.0,8.0,20.0,11.0,9.0,9.0,3.0,10.0,7.0,5.0,30.0,5.0,19.0
13,10.0,4.0,3.0,11.0,2.0,1.0,7.0,18.0,14.0,9.0,15.0,4.0,8.0,13.0,6.0,24.0,4.0,20.0
14,16.0,2.0,1.0,12.0,1.0,1.0,6.0,21.0,13.0,9.0,14.0,2.0,9.0,8.0,6.0,23.0,8.0,13.0
15,9.0,2.0,1.0,12.0,4.0,1.0,6.0,19.0,11.0,7.0,11.0,2.0,10.0,11.0,6.0,20.0,21.0,19.0
16,4.0,1.0,0.0,12.0,1.0,3.0,5.0,19.0,16.0,9.0,10.0,2.0,9.0,6.0,7.0,26.0,8.0,16.0
17,6.0,1.0,1.0,5.0,2.0,3.0,7.0,12.0,11.0,5.0,10.0,1.0,5.0,8.0,4.0,18.0,4.0,16.0
18,10.0,1.0,1.0,11.0,2.0,2.0,6.0,18.0,14.0,7.0,11.0,2.0,10.0,8.0,6.0,21.0,6.0,15.0
19,7.0,1.0,0.0,16.0,1.0,2.0,7.0,18.0,15.0,8.0,15.0,3.0,10.0,5.0,5.0,20.0,4.0,12.0
20,6.0,1.0,0.0,13.0,1.0,1.0,4.0,19.0,11.0,7.0,13.0,2.0,10.0,6.0,7.0,21.0,5.0,16.0
21,5.0,0.0,1.0,14.0,0.0,3.0,4.0,18.0,11.0,4.0,8.0,2.0,8.0,4.0,4.0,15.0,5.0,14.0
22,4.0,0.0,1.0,12.0,0.0,2.0,4.0,14.0,10.0,2.0,7.0,1.0,6.0,1.0,5.0,12.0,7.0,9.0
23,3.0,1.0,1.0,14.0,0.0,2.0,2.0,12.0,8.0,1.0,10.0,1.0,6.0,2.0,1.0,13.0,1.0,9.0
24,2.0,1.0,0.0,10.0,0.0,0.0,2.0,13.0,11.0,2.0,11.0,1.0,6.0,6.0,1.0,11.0,3.0,10.0
