,C ATM,C CS-11,C CS-12,C CS-4,C CS-P.Valdivia,C Granulacion,C NPT 1-2,C NPT3,C NPT4,C PTS,C Prilado,C Secado L-3,C Secado L-4,Galpones,Losa Envasado,Romana 3,Romana Mto,Romana Salitre
1,4.0,0.0,0.0,8.0,0.0,1.0,3.0,12.0,9.0,2.0,7.0,0.0,6.0,4.0,3.0,11.0,4.0,8.0
2,4.0,0.0,0.0,12.0,1.0,0.0,4.0,15.0,13.0,2.0,7.0,1.0,9.0,8.0,1.0,16.0,4.0,10.0
3,6.0,0.0,1.0,12.0,0.0,0.0,4.0,16.0,12.0,7.0,10.0,2.0,9.0,7.0,5.0,18.0,4.0,17.0
4,4.0,0.0,0.0,9.0,1.0,2.0,2.0,14.0,13.0,6.0,13.0,2.0,8.0,2.0,4.0,20.0,3.0,11.0
5,3.0,1.0,2.0,10.0,1.0,1.0,2.0,16.0,9.0,5.0,6.0,1.0,6.0,6.0,4.0,12.0,3.0,17.0
6,6.0,1.0,1.0,15.0,1.0,1.0,4.0,19.0,10.0,6.0,9.0,1.0,10.0,6.0,7.0,19.0,3.0,22.0
7,8.0,2.0,1.0,12.0,1.0,1.0,6.0,23.0,11.0,4.0,13.0,2.0,10.0,7.0,5.0,24.0,3.0,14.0
8,11.0,2.0,1.0,14.0,1.0,1.0,9.0,31.0,12.0,7.0,13.0,2.0,14.0,4.0,6.0,34.0,4.0,17.0
9,10.0,2.0,1.0,16.0,1.0,1.0,13.0,25.0,15.0,4.0,8.0,3.0,13.0,8.0,5.0,28.0,5.0,16.0
10,6.0,4.0,1.0,16.0,4.0,1.0,9.0,26.0,13.0,5.0,14.0,1.0,10.0,5.0,7.0,32.0,5.0,16.0
11,14.0,1.0,1.0,20.0,2.0,1.0,8.0,25.0,10.0,13.0,11.0,2.0,11.0,10.0,7.0,24.0,2.0,15.0
12,6.0,2.0,1.0,20.0,2.0,1.0,7.0,25.0,13.0,8.0,9.0,3.0,11.0,9.0,6.0,28.0,6.0,19.0
13,9.0,3.0,3.0,18.0,1.0,1.0,3.0,22.0,16.0,13.0,14.0,4.0,12.0,11.0,9.0,23.0,4.0,22.0
14,18.0,2.0,1.0,16.0,2.0,1.0,7.0,21.0,13.0,10.0,14.0,2.0,12.0,11.0,6.0,21.0,9.0,16.0
15,7.0,2.0,1.0,21.0,2.0,1.0,5.0,23.0,14.0,13.0,13.0,2.0,12.0,11.0,7.0,26.0,20.0,19.0
16,5.0,2.0,1.0,15.0,1.0,3.0,5.0,24.0,11.0,7.0,11.0,2.0,10.0,6.0,6.0,34.0,9.0,14.0
17,5.0,1.0,1.0,15.0,2.0,2.0,5.0,26.0,9.0,6.0,11.0,1.0,8.0,8.0,7.0,16.0,4.0,18.0
18,8.0,1.0,1.0,14.0,1.0,2.0,5.0,17.0,14.0,11.0,8.0,2.0,10.0,10.0,10.0,22.0,3.0,19.0
19,5.0,0.0,0.0,8.0,1.0,2.0,5.0,17.0,13.0,6.0,15.0,3.0,13.0,4.0,6.0,21.0,4.0,13.0
20,6.0,1.0,1.0,11.0,1.0,2.0,4.0,12.0,9.0,7.0,12.0,2.0,9.0,6.0,7.0,21.0,5.0,14.0
21,4.0,0.0,0.0,14.0,1.0,3.0,4.0,16.0,12.0,3.0,7.0,2.0,5.0,4.0,3.0,18.0,6.0,14.0
22,4.0,0.0,1.0,10.0,0.0,4.0,5.0,18.0,11.0,1.0,7.0,1.0,5.0,1.0,3.0,10.0,6.0,13.0
23,3.0,1.0,0.0,9.0,0.0,2.0,1.0,12.0,9.0,2.0,6.0,1.0,6.0,3.0,1.0,11.0,1.0,7.0
24,2.0,1.0,0.0,9.0,0.0,0.0,3.0,12.0,8.0,2.0,9.0,1.0,6.0,6.0,1.0,11.0,2.0,9.0
