,C ATM,C CS-11,C CS-12,C CS-4,C CS-P.Valdivia,C Granulacion,C NPT 1-2,C NPT3,C NPT4,C PTS,C Prilado,C Secado L-3,C Secado L-4,Galpones,Losa Envasado,Romana 3,Romana Mto,Romana Salitre
1,0.025390632450580597,0.0,0.0,4.256145570427179,0.0,0.0,0.12500206008553505,2.056108359247446,0.25,1.0747462511062622e-06,4.76837158203125e-07,0.000244140625,0.0,0.2265625,0.4847412109375,0.0,1.0058283805847168e-07,0.25
2,0.015625,0.0,0.0,3.1428764704614878,0.0,0.0,1.1064112186431885e-06,3.5189923960715532,0.45703125,1.1064112186431885e-06,4.76837158203125e-07,0.0001220703125,0.0,0.4420166015625,0.477294921875,0.0,2.2239983081817627e-06,1.53125
3,0.007812559604644775,0.0,0.0,5.054468009620905,0.0,0.0,0.015629934147000313,4.030745843425393,0.578125,1.0766088962554932e-06,0.5438083410263062,0.13330078125,0.25214231945574284,0.2308349609375,1.3459787368774414,0.0,5.33275306224823e-06,4.556317925453186
4,1.9073486328125e-06,0.0,0.0,4.490479765459895,0.0,2.384185791015625e-07,0.031741220504045486,2.9434907250106335,0.5273590087890625,1.911073923110962e-06,2.2826095689088106,1.0361328125,1.4673340283334255,0.07647708058357239,0.2924222946166992,0.0,5.150213837623596e-06,8.595924215391278
5,0.001953125,0.0,0.0,0.7973654381930828,0.0,1.6763806343078613e-08,2.86102294921875e-06,0.611356707289815,0.3751220703125,0.0,1.9739125669002533,0.0,0.5200511682778597,0.25390636920928955,0.02373218536376953,0.0,2.384185791015625e-07,3.1980856582522392
6,0.013671875,0.0,0.0,3.8957768082618713,1.862645149230957e-09,0.0,1.007843017578125,0.09856806136667728,0.31640625,9.5367431640625e-07,1.6627218443900347,6.103515625e-05,0.04487965255975723,0.1412515640258789,0.1486210823059082,0.0,3.433413803577423e-05,4.400729866698384
7,0.15479014813899994,0.0,0.0,5.373538069427013,9.313225746154785e-09,0.501953125,0.5020214021205902,5.2409955114126205,1.1335603594779968,1.9073486328125e-05,5.408364804461598,0.1252145767211914,0.6359981410205364,0.309556245803833,2.2202463150024414,0.0,0.750005379319191,14.739105608314276
8,0.17172746360301971,0.0,9.5367431640625e-07,3.325200667604804,0.0,0.0,1.0498133227229118,4.051535589620471,1.6884160041809082,0.001957416534423828,4.527298184111714,0.26568603515625,0.4731794726103544,0.2451949119567871,1.7754020690917969,0.0,2.602115273475647e-06,13.62770058773458
9,0.282107412815094,0.0,0.0,5.976596428081393,0.0,0.0,1.6592301838099957,6.778733244165778,1.6670228242874146,1.7642974853515625e-05,4.011920224875212,0.6329808235168457,1.796722048893571,0.3407900333404541,2.2584381699562073,0.0,0.00024511106312274933,15.970635021105409
10,0.17785954475402832,0.0,0.0,5.165324948728085,2.86102294921875e-06,0.0,0.8540082313120365,6.813730901107192,2.842609465122223,9.5367431640625e-07,3.0053211264312267,0.00019073486328125,1.7565491292625666,0.1272742599248886,0.5243392027914524,0.0,0.015656668692827225,17.06850779801607
11,3.0517578125e-05,0.0,0.0,5.649941921234131,0.0,2.9802322387695312e-08,0.00048828125,3.4764079079031944,0.6973962783813477,0.0,4.158911293372512,1.52587890625e-05,2.7450921032577753,0.023468315601348877,0.673187255859375,0.0,0.0,11.784631045535207
12,0.10178013145923615,0.0,0.0,10.523448534309864,2.8703361749649048e-06,1.4901161193847656e-08,0.0004896633327007294,3.188147399574518,1.7212221920490265,4.76837158203125e-07,4.21685479208827,0.7500076312571764,3.25318830832839,0.6298602521419525,2.0186805725097656,0.0,3.3039599657058716e-05,16.647663546726108
13,0.16422033309936523,0.0,0.0,8.648457581177354,1.9073486328125e-06,0.0,0.09280569106340408,6.059741385281086,0.2580108642578125,9.5367431640625e-07,3.729692794382572,1.52587890625e-05,3.4077144153416157,0.8399010002613068,1.267420768737793,0.0,3.5509467124938965e-05,19.224390026181936
14,0.06366518139839172,0.0,0.0,7.632824974134564,3.814697265625e-06,0.0,0.583656195551157,6.8078593742102385,1.4585380554199219,7.171183824539185e-07,1.6815897263586521,0.0,1.2347570974379778,1.148125097155571,2.5487985610961914,0.0,3.296695649623871e-05,17.911234168335795
15,0.06311513669788837,0.0,0.0,9.3210888504982,2.86102294921875e-06,0.0,0.915102131664753,5.909247849136591,1.43024642765522,1.0728836059570312e-06,4.942108986899257,0.007814407348632812,2.5993017964065075,1.0234528332948685,3.5401506423950195,0.0,5.0123780965805054e-05,17.258568352088332
16,0.00024774856865406036,0.0,0.0,9.464680461212993,2.86102294921875e-06,0.0,0.08398658782243729,6.624553043395281,1.6093921698629856,7.152557373046875e-07,4.98399262316525,0.00013756752014160156,2.4450632501393557,0.5330669283866882,0.7677357196807861,0.0,3.491342067718506e-05,15.709871521219611
17,9.5367431640625e-07,0.0,0.0,1.8618465662002563,0.0,1.9725412130355835e-06,1.862645149230957e-07,1.8282258920371532,0.8672614097595215,0.0,2.9947220124304295,0.0,0.151625357568264,0.0009775757789611816,0.008316516876220703,0.0,0.06250000186264515,11.276296874508262
18,9.059906005859375e-06,0.0,0.0,5.885758221149445,0.0,0.2519531399011612,0.1582493782043457,3.2767334431409836,0.8675625324249268,4.78699803352356e-07,3.7247781231999397,0.0078277587890625,1.19712870195508,0.39868175983428955,3.4053122997283936,0.0,2.030283212661743e-06,6.51236554980278
19,5.7853758335113525e-06,0.0,0.0,9.100760644301772,0.0,2.164393663406372e-06,1.0443167872726917,5.698625208809972,1.7901229858398438,4.78699803352356e-07,2.8472060970962048,0.015625476837158203,5.678094753995538,0.17237098515033722,1.9218864440917969,0.0,1.7136335372924805e-07,17.392881825566292
20,0.0029307231307029724,0.0,0.0,7.8308538887649775,0.0,1.0004971791058779,1.5058765653520823,4.957275928929448,1.0313720703125,9.57399606704712e-07,2.5313202403485775,1.15625,3.273840233683586,0.13501763343811035,2.181061029434204,0.0,3.259629011154175e-07,14.224168613553047
21,1.9371509552001953e-06,0.0,0.0,7.526882452890277,0.0,0.5010531488806009,0.12524517998099327,5.925794288516045,0.2734375,4.805624485015869e-07,0.12500429153442383,0.01568603515625,0.9377021975815296,0.1566314697265625,1.0001299381256104,0.0,0.0009778086096048355,5.225261053070426
22,0.0009765625,0.0,0.0,9.097672004252672,0.0,0.0003738999366760254,0.01565656252205372,3.7001893222332,0.6015625,4.76837158203125e-07,2.384185791015625e-07,0.0019540786743164062,0.2500038184225559,0.1114501953125,0.1217050552368164,0.0,1.7508864402770996e-07,0.17343617416918278
23,0.0,0.0,0.0,5.4566741324961185,0.0,0.0,0.0,2.436888974159956,0.1484375,0.0,0.0,0.0,0.0,0.0,0.0078125,0.0,0.0,0.07031250186264515
24,0.001953125,0.0,0.0,3.6665252670645714,0.0,0.0,0.03125000186264515,3.401201345026493,0.16015625,5.252659320831299e-07,1.1920928955078125e-07,0.01177978515625,0.0,0.18975830078125,0.2874755859375,0.0,1.4901161193847656e-07,1.7734375
