,C ATM,C CS-11,C CS-12,C CS-4,C CS-P.Valdivia,C Granulacion,C NPT 1-2,C NPT3,C NPT4,C PTS,C Prilado,C Secado L-3,C Secado L-4,Galpones,Losa Envasado,Romana 3,Romana Mto,Romana Salitre
1,1.5000000596046448,0.0,0.0,3.3672306276857853,0.0,0.0,1.1920928955078125e-07,4.026422282680869,0.15137584693729877,0.0,0.2502212543040514,0.0,2.001625063829124,0.015625,0.015625,2.502462388947606,0.04298690985888243,0.11277207732200623
2,1.5000000596046448,0.0,0.0,2.3359939577057958,0.0,0.06250005960464478,0.0,2.7829617084935308,0.17353443056344986,0.0,0.0015802383422851562,0.0,2.0045318603515625,0.015625,0.0,2.256195074878633,0.0937548540532589,0.07919491454958916
3,1.5000000596046448,0.0,0.0,2.8906758558005095,0.2500009536743164,3.4533441066741943e-06,3.874301910400391e-06,3.0358267659321427,0.3694763407111168,0.0010237693786621094,2.0044121835380793,3.976747393608093e-06,4.530989031307399,0.015625,0.7656273432075977,9.51655671838671,0.5703937001526356,0.15410627983510494
4,1.000030517578125,0.0,9.313225746154785e-10,1.6523661324754357,0.031250000931322575,0.12695455644279718,5.960464477539063e-08,7.450614249333739,0.3708635987713933,0.001711130142211914,4.315812590532005,7.450580596923828e-09,5.297343164682388,0.0,0.2656281739473343,13.468627960421145,0.6640635337680578,0.11554659903049469
5,0.0002442002296447754,0.0,0.0,4.172325134277344e-07,0.0,0.18798925168812275,0.0,3.5734684774652123,0.008127198554575443,0.0,3.750984908081591,0.015625009313225746,2.7441426469013095,0.015625,0.1406269371509552,11.540489216335118,0.0,0.00026099011301994324
6,0.12500000651925802,0.0,7.62939453125e-06,2.989545464515686e-07,9.313225746154785e-10,0.7500001527369022,0.0,3.6042456813156605,1.5069907661527395,0.00513458251953125,0.3148093819618225,0.0,2.4566443068906665,0.0,1.862645149230957e-09,3.6034648194909096,0.5009892815724015,1.255005811341107
7,0.06305129546672106,0.3125,3.0517578125e-05,1.3447697842493653,0.00025177001953125,0.31256485916674137,6.05359673500061e-08,10.292886732146144,0.017008833587169647,0.0018312931060791016,1.6170518854632974,0.06275964342057705,6.835768048651516,0.000244140625,0.11025287210941315,12.277352065779269,0.821316777728498,0.32750176452100277
8,0.0024702148512005806,0.328125,0.0,2.210001029074192,1.9073486328125e-06,9.313225746154785e-10,3.3620744943618774e-07,10.00125860515982,1.5826326915994287,0.000244140625,5.730123174376786,0.031616331078112125,4.980592750944197,0.09497095737606287,0.7435085633769631,10.627683319151402,0.601576417684555,1.8606960633769631
9,0.0027810335159301758,0.6418459415435791,1.1920928955078125e-07,1.8623440517112613,7.808208465576172e-06,1.71661376953125e-05,3.03611159324646e-07,9.506010772660375,4.072613776661456,6.103515625e-05,4.326095901429653,1.526065170764923e-05,4.749630781821907,0.03289846424013376,2.2823354322463274,13.960813423618674,0.7022467534989119,3.880862383171916
10,0.0026741623878479004,0.080810546875,0.125,0.4648721246048808,0.125,0.0078125,3.026798367500305e-07,9.508637194521725,8.134973109699786,3.0517578125e-05,1.968818019144237,6.486568599939346e-05,6.5745005160570145,0.2288825809955597,1.7978003788739443,12.942378770560026,0.5429875869303942,8.643327376805246
11,0.062744140625,0.0,0.0,3.0174851417541504e-07,0.0,0.0,0.0,10.537002233788371,2.6399309746921062,0.0034233927726745605,1.8829330233857036,1.955777406692505e-08,3.843299811705947,0.0078125,0.5156327579170465,9.024173590354621,0.0,3.1346782483160496
12,0.6185608804225922,0.5000000298023224,0.0,2.2510156547650695,4.777684807777405e-07,0.0,1.862645149230957e-09,9.8147176457569,4.765864094719291,0.004388034343719482,0.8959299940615892,1.4901161193847656e-08,5.232751372270286,0.09429972618818283,0.44532938301563263,14.191329750232399,0.023450427688658237,3.2621825337409973
13,0.0874406099319458,0.53125,0.0,2.18850417714566,0.125,3.0517578125e-05,9.313225746154785e-10,11.880933373235166,9.31584797706455,0.025779783725738525,2.201443726196885,7.789582014083862e-06,4.735483107157052,0.04876809660345316,0.21956693846732378,13.550280443392694,0.5645872140303254,5.41602027695626
14,0.03360751271247864,1.0791015625,9.313225746154785e-10,2.523475369438529,9.313225746154785e-10,8.940696716308594e-08,9.313225746154785e-10,8.707172674126923,5.032522122375667,0.03466767072677612,1.8171690767630935,0.03125004842877388,2.9846642818301916,0.4791870266199112,0.8207211485132575,10.296839001588523,0.5937648983672261,6.028665610589087
15,0.09504127502441406,0.641357421875,0.0,4.116250885650516,0.0,0.0,0.0,7.947548941709101,4.536681295372546,0.05459427833557129,1.7601811354979873,6.107985973358154e-05,5.142729518935084,0.07135021686553955,1.4310425203293562,10.330144530162215,0.2510024793446064,5.796453496441245
16,1.0312652587890625,0.649169921875,0.0,2.06836895737797,0.0001220703125,1.862645149230957e-08,9.313225746154785e-10,6.762848349288106,4.8011203380301595,0.009685277938842773,2.3030298268422484,0.00134280975908041,4.703143514692783,0.36761474609375,1.5096593843773007,13.907702925615013,0.22462228871881962,5.914462666027248
17,0.1250004768371582,0.0,0.0,1.341104507446289e-07,0.0,0.03125198930501938,0.0,3.11547136772424,3.7657317901030183,0.0009770393371582031,1.1877907235175371,0.0078125,0.8413124103099108,0.2658081064000726,0.13317884970456362,5.511569661088288,1.862645149230957e-09,3.565410051494837
18,0.015663624741137028,0.0,0.0,2.8312206268310547e-07,1.9073486328125e-06,1.4901161193847656e-08,0.0,5.429624273441732,6.008286833763123,0.005628466606140137,1.5012902086600661,6.29723072052002e-05,2.286305809393525,0.0,0.00018320605158805847,6.374466028064489,0.041030045598745346,2.943073332309723
19,0.12502289470285177,0.0,0.0,0.14357429090887308,0.0,0.007812533527612686,0.0,6.128141770139337,6.070943221449852,0.005120515823364258,0.3675966262817383,2.9802322387695312e-08,4.148800704628229,0.0,1.5313782673329115,8.190320842899382,0.5097790090367198,4.696571961976588
20,0.5781407356262207,0.0,0.0,1.5849852338433266,0.0,0.0,0.0,6.261112325824797,2.028526920825243,0.001770317554473877,0.3007924919947982,2.3283064365386963e-08,5.320478558540344,0.0,1.0313781695440412,8.073515601456165,0.31252433080226183,2.904234823770821
21,0.5469131469726562,0.0,0.0,1.1728826528415084,0.0,4.852190613746643e-07,3.814697265625e-06,4.503844249993563,0.5723584732040763,0.000732421875,0.018425261601805687,3.814697265625e-06,3.1903276555240154,0.0,0.7578163640573621,5.25538825057447,0.26760015077888966,0.06009162124246359
22,1.0000152587890625,0.0,4.76837158203125e-07,1.1142788147553802,0.0,0.0,0.0,6.5772555992007256,0.058690281584858894,0.0,0.21875012014061213,3.814697265625e-06,0.6255188155919313,0.0078125,0.00781686045229435,1.0959113677963614,0.2793188523501158,0.0586911141872406
23,0.0,0.0,0.0,8.940696716308594e-08,0.0,0.0,0.0,1.4440357023850083,0.0025106072425842285,0.0,0.0002441415563225746,9.313225746154785e-10,0.1262378692626953,0.0,1.862645149230957e-09,0.8437671707943082,1.9073486328125e-06,0.0007720589637756348
24,0.2500000298023224,0.0,0.0,0.8769779959693551,0.0,0.0,5.960464477539063e-08,1.1343926610425115,0.04424750991165638,0.0,0.2507476815953851,0.0,3.001343728043139,0.0078125,0.0,4.50837517157197,0.06836510542780161,0.05966057814657688
