,C ATM,C CS-11,C CS-12,C CS-4,C CS-P.Valdivia,C Granulacion,C NPT 1-2,C NPT3,C NPT4,C PTS,C Prilado,C Secado L-3,C Secado L-4,Galpones,Losa Envasado,Romana 3,Romana Mto,Romana Salitre
1,9.546056389808655e-07,0.0,0.0,6.05359673500061e-08,0.0,1.4901161193847656e-08,1.5000145444646478,2.1690550623461604,0.0,0.0020756740123033524,1.4901161193847656e-08,0.0,0.8126832954585552,0.0,0.0,0.0,6.05359673500061e-08,1.593829207122326
2,0.02346996311098337,0.0,0.0,1.2014061212539673e-07,0.0,2.9802322387695312e-08,1.7404556274414062e-05,3.762317730113864,0.0,0.0006719846278429031,2.9802322387695312e-08,5.960464477539063e-08,1.031892734579742,0.0,0.0,0.0,9.313225746154785e-10,1.812842633575201
3,0.03149604797363281,0.0,0.0,6.146728992462158e-08,0.0,2.9802322387695312e-08,7.62939453125e-06,5.616921126842499,6.103515625e-05,0.006470680236816406,1.4901161193847656e-08,0.0,2.7821681275963783,0.0,0.0,0.0,6.146728992462158e-08,2.532577835023403
4,0.2734375,0.0,0.0,0.0,0.0,0.0,0.0,5.3699353858828545,0.0,0.0,1.4901161193847656e-08,0.0,1.343757688999176,0.0,0.0,0.0,0.0,3.297013059258461
5,0.0078125,0.0,0.0,0.0,0.0,0.0,0.0025329627096652985,2.887027413584292,0.0,1.0020202454179525,2.0,0.0,0.37504827976226807,0.0,0.0,0.0,0.5000000298023224,0.3487364202737808
6,0.1260690689086914,3.2901763916015625e-05,0.0,1.1250077486038208,0.0,0.0009765625,0.25272847805172205,8.390889720059931,7.62939453125e-06,0.503907622769475,2.8137564985081553,0.0,2.6574348816648126,0.0,0.0,0.0,0.6250001192092896,6.364773791283369
7,1.0026259422302246,3.337860107421875e-05,0.0,1.0312578678131104,0.0,0.003910064697265625,1.6256788428872824,5.9406835259869695,0.5009765625,0.5019544363021851,0.06302506662905216,1.52587890625e-05,1.625706261023879,0.0,1.9103288650512695e-05,0.0,1.625244140625,3.8484012130647898
8,1.5004897117614746,3.4809112548828125e-05,0.0,1.4375077486038208,0.0,0.001955747604370117,0.875976026058197,6.472109681926668,4.842877388000488e-08,0.000977400690317154,1.0005216943100095,0.0,3.188334509730339,0.0,3.819167613983154e-05,0.0,0.3754926919937134,5.723631954751909
9,0.0006871223449707031,2.384185791015625e-06,0.0,0.875015377998352,0.0,0.000977158546447754,1.7600597776472569,9.073431112803519,1.1920928955078125e-07,3.500979189760983,2.3129912111908197,0.0,0.5629974026232958,0.0,7.674098014831543e-06,0.0,1.0004887878894806,4.7850456377491355
10,0.0010071396827697754,0.0,0.0,0.0,0.0,0.0,6.133317947387695e-05,13.929358712397516,2.7939677238464355e-09,7.62939453125e-06,0.5,0.0,1.3752484330907464,0.0,7.62939453125e-06,0.0,0.0001220703125,2.2523747757077217
11,0.014259972609579563,4.76837158203125e-07,0.0,1.5000077486038208,0.0,2.384185791015625e-07,0.6374121075496078,9.77180169802159,0.0,0.007333521731197834,3.2504930831491947,1.9073486328125e-06,0.6942650889977813,0.0,1.9297003746032715e-06,0.0,0.8757349252700806,5.851752320304513
12,0.639221384190023,2.384185791015625e-06,0.0,1.1250078678131104,0.0,1.9073486328125e-06,1.639091495424509,12.6549624633044,0.06250014156103134,0.0029339222237467766,2.4062543576583266,7.450580596923828e-09,1.5165622010827065,0.0,2.4586915969848633e-07,0.0,1.750765385106206,3.3777220314368606
13,0.7926408126950264,4.76837158203125e-06,0.0,1.000015377998352,0.0,0.004884839057922363,0.6739112148061395,8.798977989703417,0.2500000074505806,1.750983715057373,3.0625028926879168,1.5497207641601562e-05,1.7522013867273927,0.0,4.9971044063568115e-05,0.0,0.5312512218952179,4.237303821370006
14,1.040985175408423,4.76837158203125e-07,0.0,1.2500077486038208,0.0,8.419156074523926e-07,1.184889554977417,9.818399483337998,4.76837158203125e-07,1.0014750361442566,1.5000023916363716,7.152557373046875e-07,2.305182901211083,0.0,7.972121238708496e-06,0.0,1.000000149011612,3.8638649033382535
15,0.12231455091387033,2.86102294921875e-06,0.0,1.5000078678131104,0.0,0.0029311254620552063,0.6729307174682617,9.723791505210102,2.9802322387695312e-08,1.250977098941803,1.7500029122456908,4.470348358154297e-07,1.4858761560171843,0.0,8.13603401184082e-06,0.0,0.50048828125,4.925809720531106
16,0.0655689463019371,4.76837158203125e-07,0.0,0.0,0.0,0.0,0.13189697265625,11.32955339550972,0.0,0.5009768605232239,0.2500004852190614,1.4901161193847656e-08,0.3917434364557266,3.725290298461914e-09,7.62939453125e-06,0.0,0.0,0.9708805466070771
17,0.5078975176438689,0.0,0.0,0.0,0.0,3.5762786865234375e-07,0.5166031736880541,2.492770293727517,2.9802322387695312e-08,1.5000016735866666,0.5625000009313226,7.450580596923828e-09,1.8594164866954088,0.0,2.2351741790771484e-08,0.0,0.0,1.2356463382020593
18,1.0289484802633524,0.0,0.0,2.9802322387695312e-08,0.0,4.76837158203125e-07,1.0019896663725376,11.06075341720134,2.2351741790771484e-08,1.0021372456103563,1.781250011175871,1.9073486328125e-06,2.899873689748347,0.0,1.9297003746032715e-06,0.0,2.9802322387695312e-08,7.756345858797431
19,1.5195628562942147,0.0,0.0,5.960464477539063e-08,0.0,1.9222497940063477e-06,0.2500501275062561,8.507950141094625,0.250030517578125,3.051944077014923e-05,1.0000000139698386,5.960464477539063e-08,0.9886639155447483,0.0,1.3433396816253662e-05,0.0,0.0,3.796451202593744
20,0.5078435204923153,0.0,0.0,3.725290298461914e-08,0.0,4.76837158203125e-07,1.0000262260437012,4.925274968147278,4.852190613746643e-07,0.00012207310646772385,1.4901161193847656e-08,5.960464477539063e-08,0.8760517109185457,0.0,7.450580596923828e-09,0.0,5.960464477539063e-08,2.1261938279494643
21,0.007812608033418655,0.0,0.0,2.9802322387695312e-08,0.0,2.2351741790771484e-08,0.0014820098876953125,6.108075715601444,0.0,0.25012245774269104,1.6763806343078613e-08,8.940696716308594e-08,0.40634280163794756,0.0,5.960464477539063e-08,0.0,2.9802322387695312e-08,0.6720205172896385
22,6.146728992462158e-08,0.0,0.0,0.0,0.0,0.0,5.960464477539063e-08,5.707893630489707,0.0,0.0,0.0,0.0,0.7344858078286052,0.0,0.0,0.0,0.0,0.2187927383929491
23,0.3128662109375,0.0,0.0,2.9802322387695312e-08,0.0,0.0,0.001467585563659668,2.387264382094145,0.0,0.000489414669573307,0.7500000074505806,0.0,0.93757482804358,0.0,0.0,0.0,0.0,2.14137673843652
24,7.450580596923828e-09,0.0,0.0,5.960464477539063e-08,0.0,1.4901161193847656e-08,5.960464477539063e-08,1.4135403670370579,0.0,0.0005499720573425293,1.4901161193847656e-08,0.0,0.3135743383318186,0.0,0.0,0.0,2.9802322387695312e-08,1.2823548559099436
