,C ATM,C CS-11,C CS-12,C CS-4,C CS-P.Valdivia,C Granulacion,C NPT 1-2,C NPT3,C NPT4,C PTS,C Prilado,C Secado L-3,C Secado L-4,Galpones,Losa Envasado,Romana 3,Romana Mto,Romana Salitre
1,1.0,0.0,0.0,2.0,0.0,2.0,5.0,7.0,0.0,2.0,1.0,0.0,4.0,0.0,0.0,0.0,1.0,6.0
2,4.0,0.0,0.0,2.0,0.0,1.0,2.0,9.0,0.0,3.0,2.0,0.0,5.0,0.0,0.0,0.0,1.0,6.0
3,2.0,0.0,0.0,1.0,0.0,2.0,1.0,10.0,1.0,5.0,2.0,0.0,5.0,0.0,0.0,0.0,2.0,9.0
4,2.0,0.0,0.0,0.0,0.0,0.0,0.0,10.0,0.0,0.0,5.0,0.0,2.0,0.0,1.0,0.0,0.0,5.0
5,1.0,0.0,0.0,0.0,0.0,2.0,3.0,12.0,0.0,6.0,1.0,0.0,2.0,0.0,1.0,0.0,1.0,5.0
6,2.0,1.0,0.0,2.0,0.0,5.0,8.0,17.0,1.0,8.0,3.0,0.0,5.0,0.0,1.0,0.0,1.0,10.0
7,4.0,2.0,0.0,2.0,0.0,4.0,10.0,12.0,1.0,5.0,2.0,1.0,4.0,0.0,2.0,0.0,2.0,8.0
8,3.0,2.0,0.0,1.0,0.0,6.0,10.0,16.0,0.0,4.0,5.0,0.0,5.0,0.0,3.0,0.0,1.0,9.0
9,2.0,1.0,0.0,2.0,0.0,2.0,6.0,17.0,1.0,8.0,4.0,0.0,5.0,0.0,2.0,0.0,2.0,12.0
10,2.0,0.0,0.0,0.0,0.0,0.0,2.0,16.0,0.0,3.0,1.0,0.0,4.0,0.0,0.0,0.0,1.0,5.0
11,8.0,1.0,0.0,2.0,0.0,1.0,8.0,14.0,0.0,6.0,7.0,0.0,5.0,0.0,2.0,0.0,1.0,8.0
12,9.0,2.0,0.0,2.0,0.0,5.0,8.0,14.0,0.0,4.0,3.0,1.0,5.0,0.0,2.0,0.0,3.0,10.0
13,4.0,2.0,0.0,2.0,0.0,5.0,3.0,18.0,0.0,4.0,3.0,1.0,4.0,0.0,3.0,0.0,2.0,9.0
14,4.0,1.0,0.0,2.0,0.0,3.0,5.0,14.0,0.0,4.0,5.0,2.0,7.0,0.0,2.0,0.0,2.0,10.0
15,6.0,2.0,0.0,2.0,0.0,3.0,6.0,17.0,1.0,4.0,7.0,2.0,5.0,0.0,3.0,0.0,1.0,10.0
16,6.0,1.0,0.0,0.0,0.0,0.0,4.0,14.0,0.0,4.0,2.0,0.0,3.0,1.0,1.0,0.0,0.0,5.0
17,10.0,0.0,0.0,0.0,0.0,6.0,4.0,13.0,0.0,5.0,2.0,0.0,4.0,0.0,0.0,0.0,0.0,6.0
18,5.0,0.0,0.0,1.0,0.0,1.0,4.0,19.0,1.0,8.0,4.0,0.0,9.0,0.0,1.0,0.0,1.0,11.0
19,4.0,0.0,0.0,2.0,0.0,3.0,2.0,12.0,0.0,2.0,2.0,2.0,5.0,0.0,1.0,0.0,1.0,7.0
20,3.0,0.0,0.0,1.0,0.0,1.0,4.0,13.0,0.0,5.0,2.0,1.0,4.0,0.0,0.0,0.0,1.0,7.0
21,2.0,0.0,0.0,1.0,0.0,2.0,4.0,10.0,0.0,4.0,2.0,2.0,4.0,0.0,0.0,0.0,1.0,7.0
22,1.0,0.0,0.0,0.0,0.0,0.0,1.0,9.0,0.0,1.0,0.0,0.0,3.0,0.0,0.0,0.0,0.0,3.0
23,1.0,0.0,0.0,1.0,0.0,0.0,6.0,9.0,0.0,7.0,1.0,0.0,3.0,0.0,0.0,0.0,0.0,5.0
24,1.0,0.0,0.0,2.0,0.0,2.0,1.0,8.0,0.0,4.0,2.0,0.0,3.0,0.0,0.0,0.0,1.0,4.0
