,C ATM,C CS-11,C CS-12,C CS-4,C CS-P.Valdivia,C Granulacion,C NPT 1-2,C NPT3,C NPT4,C PTS,C Prilado,C Secado L-3,C Secado L-4,Galpones,Losa Envasado,Romana 3,Romana Mto,Romana Salitre
1,0.0,0,0.0,9.0,0.0,0.0,1.0,8.0,5.0,0,4.0,0.0,6.0,1.0,0.0,6.0,1.0,7.0
2,2.0,0,0.0,8.0,0.0,0.0,3.0,10.0,9.0,0,6.0,0.0,4.0,0.0,0.0,12.0,2.0,9.0
3,1.0,0,0.0,13.0,0.0,1.0,3.0,11.0,7.0,0,10.0,1.0,7.0,0.0,2.0,9.0,2.0,8.0
4,2.0,0,0.0,8.0,0.0,1.0,2.0,15.0,7.0,0,5.0,1.0,7.0,0.0,2.0,16.0,1.0,5.0
6,3.0,0,1.0,5.0,1.0,2.0,1.0,11.0,0.0,0,5.0,0.0,3.0,0.0,2.0,11.0,1.0,4.0
7,7.0,0,0.0,9.0,1.0,1.0,4.0,15.0,3.0,0,8.0,2.0,8.0,0.0,4.0,10.0,3.0,9.0
8,4.0,0,0.0,11.0,0.0,0.0,5.0,19.0,6.0,0,9.0,1.0,8.0,0.0,6.0,14.0,1.0,7.0
9,7.0,0,0.0,11.0,0.0,1.0,9.0,17.0,5.0,0,7.0,2.0,6.0,0.0,4.0,13.0,3.0,16.0
10,3.0,0,0.0,9.0,0.0,1.0,15.0,20.0,5.0,0,6.0,1.0,7.0,0.0,2.0,15.0,1.0,10.0
11,2.0,0,1.0,7.0,0.0,1.0,2.0,13.0,1.0,0,4.0,0.0,5.0,0.0,6.0,17.0,0.0,6.0
12,4.0,0,1.0,8.0,0.0,0.0,5.0,17.0,3.0,0,8.0,1.0,8.0,0.0,2.0,15.0,0.0,6.0
13,3.0,0,1.0,9.0,0.0,0.0,4.0,17.0,6.0,0,6.0,1.0,6.0,0.0,4.0,16.0,2.0,9.0
14,4.0,0,0.0,9.0,1.0,1.0,4.0,22.0,7.0,0,6.0,1.0,8.0,0.0,4.0,14.0,3.0,14.0
15,3.0,0,0.0,10.0,0.0,1.0,7.0,18.0,9.0,0,7.0,1.0,8.0,1.0,6.0,15.0,18.0,15.0
16,1.0,0,0.0,9.0,0.0,0.0,5.0,18.0,9.0,0,9.0,1.0,9.0,0.0,3.0,12.0,13.0,14.0
17,0.0,0,0.0,5.0,1.0,0.0,1.0,10.0,2.0,0,5.0,1.0,3.0,0.0,3.0,10.0,1.0,7.0
18,4.0,0,0.0,7.0,0.0,1.0,3.0,12.0,1.0,0,10.0,0.0,6.0,0.0,3.0,18.0,4.0,5.0
19,7.0,0,0.0,11.0,0.0,1.0,5.0,16.0,4.0,0,6.0,2.0,9.0,0.0,5.0,17.0,2.0,17.0
20,5.0,0,0.0,8.0,0.0,1.0,5.0,18.0,10.0,0,11.0,1.0,8.0,0.0,5.0,12.0,1.0,7.0
21,3.0,0,0.0,8.0,0.0,1.0,3.0,16.0,8.0,0,8.0,1.0,7.0,0.0,6.0,15.0,2.0,12.0
22,3.0,0,0.0,9.0,0.0,1.0,2.0,14.0,9.0,0,6.0,0.0,5.0,0.0,2.0,18.0,1.0,6.0
23,1.0,0,0.0,10.0,0.0,0.0,0.0,13.0,2.0,0,4.0,0.0,2.0,0.0,1.0,4.0,1.0,3.0
24,1.0,0,0.0,7.0,0.0,0.0,1.0,11.0,3.0,0,6.0,0.0,3.0,0.0,1.0,10.0,1.0,5.0
5,0.0,0,0.0,3.0,0.0,1.0,0.0,9.0,1.0,0,3.0,0.0,2.0,0.0,2.0,5.0,0.0,4.0
