,C ATM,C CS-11,C CS-12,C CS-4,C CS-P.Valdivia,C Granulacion,C NPT 1-2,C NPT3,C NPT4,C PTS,C Prilado,C Secado L-3,C Secado L-4,Galpones,Losa Envasado,Romana 3,Romana Mto,Romana Salitre
1,0.0,0.0,0.0,2.6129032258064515,0.0,0.0,0.0,3.032258064516129,0.2903225806451613,0.0967741935483871,0.5806451612903226,0.12903225806451613,0.6451612903225806,0.45161290322580644,0.6451612903225806,0.0,0.25806451612903225,1.6774193548387097
2,0.0,0.0,0.0,2.032258064516129,0.0,0.0,0.03225806451612903,2.6451612903225805,0.41935483870967744,0.03225806451612903,0.22580645161290322,0.0967741935483871,0.45161290322580644,0.25806451612903225,0.9354838709677419,0.0,0.1935483870967742,1.2903225806451613
3,0.03225806451612903,0.0,0.0,2.2903225806451615,0.03225806451612903,0.06451612903225806,0.0967741935483871,3.7096774193548385,0.4838709677419355,0.1935483870967742,1.064516129032258,0.12903225806451613,1.3870967741935485,0.3548387096774194,0.6451612903225806,0.0,0.1935483870967742,2.903225806451613
4,0.0,0.0,0.03225806451612903,2.2580645161290325,0.0,0.1935483870967742,0.0967741935483871,4.32258064516129,1.096774193548387,0.22580645161290322,1.2580645161290323,0.03225806451612903,1.4838709677419355,0.45161290322580644,0.9354838709677419,0.0,0.16129032258064516,4.096774193548387
5,0.0,0.0,0.0,1.096774193548387,0.0,0.06451612903225806,0.0,2.838709677419355,0.12903225806451613,0.0,0.3870967741935484,0.03225806451612903,0.2903225806451613,0.03225806451612903,0.3548387096774194,0.0,0.0,1.4516129032258065
6,0.0967741935483871,0.0,0.0,1.2903225806451613,0.0,0.0967741935483871,0.06451612903225806,3.935483870967742,0.5161290322580645,0.45161290322580644,0.8709677419354839,0.0,1.1290322580645162,0.12903225806451613,0.3548387096774194,0.0,0.7419354838709677,2.5161290322580645
7,1.0,0.0,0.0,3.0,0.0,0.03225806451612903,0.41935483870967744,5.870967741935484,0.7419354838709677,0.2903225806451613,1.7741935483870968,0.12903225806451613,1.4838709677419355,0.2903225806451613,1.0,0.0,0.45161290322580644,5.096774193548387
8,1.5161290322580645,0.0,0.03225806451612903,3.3548387096774195,0.0,0.0967741935483871,0.6774193548387096,5.903225806451613,0.8387096774193549,0.6451612903225806,1.8387096774193548,0.3225806451612903,2.225806451612903,0.5161290322580645,1.064516129032258,0.0,0.7741935483870968,5.161290322580645
9,1.6451612903225807,0.0,0.0,3.3870967741935485,0.0,0.06451612903225806,0.6451612903225806,7.451612903225806,1.4838709677419355,0.3548387096774194,1.4193548387096775,0.0967741935483871,2.129032258064516,0.45161290322580644,0.6774193548387096,0.0,0.6774193548387096,7.258064516129032
10,1.7419354838709677,0.0,0.03225806451612903,3.774193548387097,0.06451612903225806,0.03225806451612903,0.6774193548387096,6.838709677419355,2.225806451612903,0.7419354838709677,1.096774193548387,0.25806451612903225,1.4193548387096775,0.3225806451612903,0.8709677419354839,0.0,0.3870967741935484,6.709677419354839
11,0.22580645161290322,0.0,0.0,2.5806451612903225,0.03225806451612903,0.0,0.03225806451612903,6.483870967741935,1.0,0.7096774193548387,1.1290322580645162,0.12903225806451613,1.7096774193548387,0.03225806451612903,0.1935483870967742,0.0,0.0,4.806451612903226
12,0.6451612903225806,0.0,0.06451612903225806,3.2580645161290325,0.0,0.0,0.3548387096774194,7.0,1.3870967741935485,0.3548387096774194,1.5483870967741935,0.22580645161290322,1.4516129032258065,0.22580645161290322,0.5161290322580645,0.0,0.3225806451612903,5.903225806451613
13,0.9354838709677419,0.0,0.0,4.129032258064516,0.03225806451612903,0.0,0.5806451612903226,7.645161290322581,0.6129032258064516,0.5806451612903226,1.5806451612903225,0.3225806451612903,2.2903225806451615,0.6129032258064516,0.4838709677419355,0.0,0.7096774193548387,5.483870967741935
14,0.8709677419354839,0.0,0.0,4.548387096774194,0.0,0.0,0.3870967741935484,7.548387096774194,0.8064516129032258,0.967741935483871,0.967741935483871,0.16129032258064516,1.7741935483870968,0.5483870967741935,1.0,0.0,0.7741935483870968,5.483870967741935
15,1.1612903225806452,0.0,0.0,3.7419354838709675,0.0,0.0,0.4838709677419355,9.129032258064516,0.967741935483871,0.5483870967741935,1.903225806451613,0.1935483870967742,2.967741935483871,0.7096774193548387,0.7419354838709677,0.0,0.7096774193548387,7.290322580645161
16,0.7741935483870968,0.06451612903225806,0.0,3.5483870967741935,0.03225806451612903,0.0,0.41935483870967744,8.806451612903226,1.4193548387096775,0.4838709677419355,1.2258064516129032,0.1935483870967742,2.032258064516129,0.5161290322580645,0.9032258064516129,0.03225806451612903,1.0,6.67741935483871
17,0.7096774193548387,0.0,0.0967741935483871,1.5806451612903225,0.03225806451612903,0.0,0.45161290322580644,5.451612903225806,0.3870967741935484,0.0967741935483871,0.5806451612903226,0.0967741935483871,0.5161290322580645,0.2903225806451613,0.3225806451612903,0.0,0.0967741935483871,2.6774193548387095
18,0.12903225806451613,0.0,0.03225806451612903,1.6451612903225807,0.0,0.0,0.22580645161290322,6.290322580645161,1.032258064516129,0.2903225806451613,1.1612903225806452,0.06451612903225806,0.967741935483871,0.06451612903225806,0.3548387096774194,0.0,0.3870967741935484,3.064516129032258
19,0.3870967741935484,0.0,0.0,3.774193548387097,0.0,0.0,0.41935483870967744,7.709677419354839,2.0,1.2258064516129032,1.096774193548387,0.3548387096774194,2.5161290322580645,0.41935483870967744,1.1935483870967742,0.0,0.16129032258064516,6.129032258064516
20,0.16129032258064516,0.0,0.0,3.3548387096774195,0.0,0.0,0.4838709677419355,6.774193548387097,1.064516129032258,0.6774193548387096,1.3870967741935485,0.1935483870967742,1.7419354838709677,0.45161290322580644,1.0,0.0,0.1935483870967742,5.290322580645161
21,0.12903225806451613,0.0,0.0,3.3548387096774195,0.0,0.03225806451612903,0.1935483870967742,6.741935483870968,0.7419354838709677,0.25806451612903225,0.5806451612903226,0.16129032258064516,0.8709677419354839,0.3548387096774194,0.8064516129032258,0.0,0.06451612903225806,3.193548387096774
22,0.12903225806451613,0.0,0.0,3.3870967741935485,0.0,0.03225806451612903,0.12903225806451613,4.354838709677419,0.25806451612903225,0.12903225806451613,0.22580645161290322,0.0,0.4838709677419355,0.0,0.41935483870967744,0.0,0.0967741935483871,1.2903225806451613
23,0.0,0.0,0.0,2.096774193548387,0.0,0.0,0.0,3.5161290322580645,0.12903225806451613,0.03225806451612903,0.12903225806451613,0.03225806451612903,0.7096774193548387,0.1935483870967742,0.2903225806451613,0.0,0.03225806451612903,1.032258064516129
24,0.0,0.0,0.0,2.870967741935484,0.0,0.0,0.0,2.870967741935484,0.2903225806451613,0.25806451612903225,0.7419354838709677,0.0967741935483871,0.5161290322580645,0.3870967741935484,0.7419354838709677,0.0,0.0967741935483871,1.903225806451613
