,C ATM,C CS-11,C CS-12,C CS-4,C CS-P.Valdivia,C Granulacion,C NPT 1-2,C NPT3,C NPT4,C PTS,C Prilado,C Secado L-3,C Secado L-4,Galpones,Losa Envasado,Romana 3,Romana Mto,Romana Salitre
1,0.0,0.0,0,8.0,0.0,0,5.0,9.0,1.0,5.0,7.0,1.0,6.0,2.0,3.0,0.0,0.0,8.0
2,2.0,0.0,0,4.0,0.0,0,4.0,6.0,0.0,6.0,6.0,1.0,5.0,2.0,2.0,0.0,0.0,8.0
3,3.0,0.0,0,3.0,0.0,0,2.0,11.0,0.0,6.0,7.0,1.0,9.0,3.0,4.0,0.0,1.0,10.0
4,6.0,0.0,0,6.0,0.0,0,3.0,9.0,1.0,10.0,5.0,1.0,7.0,3.0,4.0,0.0,0.0,11.0
5,3.0,0.0,0,4.0,0.0,0,3.0,10.0,0.0,6.0,4.0,1.0,4.0,1.0,1.0,0.0,1.0,6.0
6,3.0,0.0,0,7.0,0.0,0,7.0,12.0,0.0,8.0,5.0,0.0,4.0,0.0,1.0,0.0,3.0,13.0
7,5.0,0.0,0,7.0,0.0,0,17.0,16.0,0.0,9.0,9.0,1.0,9.0,1.0,2.0,0.0,0.0,13.0
8,6.0,0.0,0,7.0,0.0,0,4.0,15.0,1.0,5.0,6.0,1.0,10.0,3.0,3.0,0.0,6.0,15.0
9,5.0,0.0,0,8.0,0.0,0,5.0,16.0,1.0,2.0,9.0,2.0,6.0,2.0,3.0,0.0,3.0,16.0
10,8.0,0.0,0,6.0,0.0,0,10.0,15.0,2.0,9.0,10.0,1.0,4.0,1.0,2.0,0.0,3.0,12.0
11,2.0,0.0,0,7.0,0.0,0,13.0,17.0,3.0,5.0,6.0,1.0,5.0,1.0,2.0,0.0,1.0,14.0
12,4.0,0.0,0,4.0,0.0,0,9.0,17.0,2.0,8.0,8.0,1.0,7.0,2.0,2.0,0.0,3.0,11.0
13,5.0,0.0,0,9.0,0.0,0,10.0,15.0,3.0,9.0,7.0,2.0,7.0,2.0,3.0,2.0,2.0,15.0
14,7.0,0.0,0,11.0,1.0,0,17.0,16.0,3.0,7.0,8.0,1.0,10.0,2.0,2.0,0.0,1.0,18.0
15,5.0,1.0,0,9.0,0.0,0,11.0,16.0,3.0,8.0,10.0,1.0,9.0,2.0,3.0,0.0,1.0,14.0
16,5.0,0.0,0,8.0,0.0,0,9.0,16.0,2.0,5.0,10.0,1.0,6.0,3.0,3.0,0.0,0.0,17.0
17,4.0,0.0,0,9.0,0.0,0,12.0,13.0,2.0,7.0,5.0,2.0,4.0,1.0,3.0,0.0,0.0,9.0
18,5.0,0.0,0,6.0,0.0,0,10.0,16.0,3.0,9.0,5.0,1.0,7.0,2.0,1.0,0.0,1.0,16.0
19,4.0,0.0,0,7.0,0.0,0,12.0,17.0,2.0,11.0,6.0,1.0,8.0,1.0,3.0,0.0,1.0,14.0
20,5.0,0.0,0,4.0,0.0,0,11.0,16.0,2.0,5.0,5.0,1.0,10.0,2.0,2.0,0.0,0.0,19.0
21,4.0,0.0,0,4.0,0.0,0,3.0,13.0,0.0,7.0,5.0,2.0,6.0,1.0,3.0,0.0,0.0,12.0
22,1.0,0.0,0,6.0,0.0,0,8.0,10.0,0.0,9.0,3.0,0.0,4.0,1.0,3.0,0.0,0.0,5.0
23,2.0,0.0,0,9.0,0.0,0,5.0,12.0,1.0,4.0,3.0,1.0,7.0,2.0,2.0,0.0,0.0,6.0
24,1.0,0.0,0,9.0,0.0,0,4.0,8.0,0.0,5.0,3.0,0.0,7.0,2.0,2.0,0.0,0.0,9.0
