,C ATM,C CS-11,C CS-12,C CS-4,C CS-P.Valdivia,C Granulacion,C NPT 1-2,C NPT3,C NPT4,C PTS,C Prilado,C Secado L-3,C Secado L-4,Galpones,Losa Envasado,Romana 3,Romana Mto,Romana Salitre
1,2.0,0.0,0.0,5.0,0.0,0.0,1.0,7.0,2.0,2.0,4.0,0.0,6.0,1.0,1.0,6.0,0.0,5.0
2,2.0,0.0,0.0,3.0,0.0,0.0,0.0,8.0,3.0,0.0,7.0,1.0,8.0,1.0,1.0,11.0,1.0,4.0
3,2.0,0.0,0.0,5.0,0.0,0.0,2.0,12.0,4.0,1.0,5.0,0.0,7.0,1.0,1.0,15.0,1.0,5.0
4,0.0,0.0,0.0,4.0,0.0,2.0,1.0,6.0,4.0,0.0,7.0,0.0,2.0,2.0,1.0,9.0,0.0,9.0
5,2.0,0.0,1.0,6.0,0.0,0.0,1.0,13.0,5.0,2.0,3.0,0.0,5.0,1.0,2.0,11.0,1.0,11.0
6,6.0,0.0,1.0,8.0,1.0,0.0,1.0,16.0,8.0,6.0,7.0,1.0,10.0,3.0,4.0,15.0,1.0,14.0
7,9.0,0.0,1.0,6.0,0.0,1.0,0.0,15.0,6.0,6.0,14.0,0.0,6.0,3.0,3.0,20.0,1.0,17.0
8,6.0,1.0,0.0,9.0,0.0,0.0,1.0,17.0,6.0,3.0,10.0,1.0,7.0,4.0,2.0,21.0,1.0,16.0
9,6.0,0.0,0.0,7.0,0.0,1.0,4.0,16.0,6.0,4.0,8.0,1.0,7.0,1.0,3.0,17.0,1.0,12.0
10,7.0,0.0,1.0,9.0,0.0,0.0,1.0,15.0,7.0,4.0,7.0,1.0,9.0,1.0,2.0,23.0,1.0,16.0
11,11.0,0.0,0.0,7.0,0.0,1.0,2.0,18.0,5.0,3.0,8.0,1.0,8.0,2.0,4.0,23.0,3.0,14.0
12,5.0,1.0,1.0,7.0,0.0,0.0,8.0,15.0,4.0,3.0,7.0,0.0,10.0,4.0,4.0,19.0,1.0,19.0
13,5.0,0.0,3.0,8.0,1.0,0.0,1.0,15.0,6.0,2.0,11.0,1.0,8.0,4.0,3.0,24.0,1.0,19.0
14,7.0,0.0,0.0,10.0,1.0,0.0,0.0,13.0,7.0,1.0,14.0,1.0,8.0,4.0,3.0,20.0,0.0,10.0
15,3.0,0.0,1.0,6.0,0.0,0.0,0.0,16.0,5.0,7.0,10.0,2.0,10.0,3.0,3.0,20.0,1.0,11.0
16,2.0,0.0,0.0,2.0,0.0,1.0,0.0,7.0,3.0,4.0,6.0,0.0,5.0,1.0,1.0,12.0,1.0,15.0
17,6.0,0.0,0.0,5.0,1.0,1.0,0.0,11.0,7.0,2.0,6.0,0.0,4.0,0.0,2.0,11.0,1.0,16.0
18,7.0,0.0,0.0,8.0,0.0,0.0,1.0,18.0,7.0,4.0,9.0,2.0,10.0,0.0,4.0,20.0,1.0,12.0
19,5.0,0.0,0.0,8.0,1.0,0.0,7.0,15.0,6.0,6.0,13.0,3.0,7.0,1.0,4.0,18.0,1.0,10.0
20,2.0,0.0,0.0,8.0,0.0,0.0,1.0,12.0,6.0,5.0,4.0,1.0,8.0,0.0,2.0,13.0,0.0,12.0
21,0.0,0.0,0.0,6.0,0.0,1.0,0.0,9.0,6.0,1.0,3.0,1.0,6.0,1.0,2.0,10.0,1.0,11.0
22,2.0,0.0,0.0,8.0,0.0,0.0,0.0,10.0,9.0,1.0,4.0,0.0,3.0,1.0,0.0,6.0,1.0,9.0
23,3.0,0.0,1.0,6.0,0.0,0.0,1.0,12.0,8.0,1.0,5.0,0.0,6.0,1.0,1.0,13.0,0.0,7.0
24,0.0,0.0,0.0,3.0,0.0,0.0,1.0,8.0,5.0,1.0,6.0,0.0,4.0,1.0,1.0,11.0,0.0,10.0
