,C ATM,C CS-11,C CS-12,C CS-4,C CS-P.Valdivia,C Granulacion,C NPT 1-2,C NPT3,C NPT4,C PTS,C Prilado,C Secado L-3,C Secado L-4,Galpones,Losa Envasado,Romana 3,Romana Mto,Romana Salitre
1,0.0,0.0,0.0,5.0,0.0,0.0,2.0,8.0,5.0,2.0,3.0,0.0,2.0,1.0,1.0,3.0,1.0,7.0
2,2.0,0.0,0.0,6.0,0.0,0.0,2.0,7.0,4.0,2.0,8.0,0.0,5.0,2.0,2.0,9.0,2.0,7.0
3,2.0,0.0,0.0,6.0,0.0,0.0,3.0,12.0,8.0,6.0,8.0,0.0,5.0,1.0,1.0,13.0,2.0,8.0
4,5.0,0.0,0.0,4.0,1.0,0.0,1.0,6.0,3.0,3.0,6.0,0.0,2.0,0.0,1.0,5.0,2.0,7.0
5,2.0,0.0,1.0,6.0,0.0,0.0,3.0,10.0,5.0,7.0,5.0,0.0,4.0,0.0,2.0,6.0,2.0,11.0
6,6.0,0.0,0.0,5.0,1.0,0.0,3.0,16.0,8.0,6.0,8.0,0.0,9.0,0.0,3.0,13.0,2.0,15.0
7,6.0,0.0,0.0,5.0,0.0,0.0,5.0,16.0,6.0,8.0,10.0,0.0,8.0,1.0,4.0,15.0,6.0,10.0
8,3.0,0.0,0.0,5.0,0.0,0.0,7.0,15.0,5.0,7.0,8.0,0.0,9.0,3.0,2.0,16.0,4.0,13.0
9,3.0,1.0,0.0,5.0,0.0,0.0,5.0,15.0,7.0,7.0,14.0,0.0,6.0,0.0,2.0,18.0,7.0,16.0
10,2.0,0.0,0.0,6.0,1.0,0.0,3.0,19.0,5.0,7.0,13.0,0.0,8.0,0.0,2.0,9.0,4.0,12.0
11,14.0,0.0,1.0,7.0,1.0,0.0,6.0,16.0,7.0,6.0,9.0,1.0,7.0,0.0,5.0,12.0,10.0,17.0
12,6.0,0.0,1.0,7.0,6.0,0.0,7.0,13.0,8.0,6.0,7.0,1.0,9.0,0.0,4.0,12.0,5.0,14.0
13,8.0,0.0,0.0,6.0,2.0,0.0,8.0,14.0,5.0,8.0,9.0,1.0,5.0,0.0,3.0,13.0,5.0,15.0
14,3.0,0.0,0.0,7.0,0.0,0.0,2.0,14.0,5.0,5.0,9.0,1.0,10.0,0.0,3.0,17.0,7.0,14.0
15,4.0,0.0,0.0,7.0,4.0,0.0,2.0,15.0,7.0,5.0,4.0,2.0,8.0,0.0,4.0,17.0,3.0,21.0
16,2.0,0.0,0.0,4.0,0.0,0.0,2.0,13.0,5.0,3.0,5.0,1.0,3.0,1.0,1.0,7.0,1.0,13.0
17,4.0,0.0,0.0,5.0,2.0,0.0,0.0,12.0,6.0,7.0,7.0,1.0,8.0,4.0,2.0,13.0,9.0,10.0
18,7.0,0.0,0.0,8.0,2.0,0.0,0.0,17.0,7.0,7.0,10.0,1.0,13.0,3.0,4.0,16.0,6.0,13.0
19,5.0,0.0,0.0,8.0,0.0,0.0,3.0,13.0,6.0,6.0,5.0,2.0,8.0,2.0,5.0,18.0,5.0,11.0
20,3.0,0.0,0.0,5.0,0.0,0.0,3.0,14.0,7.0,3.0,7.0,1.0,3.0,1.0,3.0,9.0,3.0,11.0
21,1.0,0.0,0.0,4.0,0.0,0.0,1.0,12.0,8.0,6.0,2.0,0.0,3.0,2.0,2.0,10.0,1.0,13.0
22,1.0,0.0,0.0,5.0,0.0,0.0,0.0,13.0,6.0,0.0,2.0,0.0,4.0,1.0,0.0,3.0,1.0,12.0
23,0.0,0.0,0.0,2.0,0.0,0.0,2.0,13.0,7.0,4.0,6.0,0.0,4.0,1.0,1.0,6.0,1.0,11.0
24,2.0,0.0,0.0,2.0,0.0,0.0,1.0,12.0,3.0,2.0,6.0,0.0,7.0,2.0,1.0,9.0,1.0,13.0
