,C ATM,C CS-11,C CS-12,C CS-4,C CS-P.Valdivia,C Granulacion,C NPT 1-2,C NPT3,C NPT4,C PTS,C Prilado,C Secado L-3,C Secado L-4,Galpones,Losa Envasado,Romana 3,Romana Mto,Romana Salitre
1,0.0,0.0,0.0,8.0,0.0,0.0,5.0,9.0,0.0,4.0,6.0,1.0,4.0,3.0,2.0,0.0,0.0,7.0
2,5.0,0.0,0.0,4.0,0.0,0.0,2.0,5.0,0.0,6.0,5.0,0.0,4.0,3.0,2.0,0.0,0.0,8.0
3,3.0,0.0,0.0,4.0,0.0,0.0,2.0,9.0,0.0,6.0,7.0,1.0,6.0,3.0,3.0,0.0,1.0,9.0
4,6.0,0.0,0.0,6.0,0.0,0.0,5.0,9.0,0.0,10.0,4.0,0.0,6.0,3.0,3.0,0.0,0.0,9.0
5,3.0,0.0,0.0,4.0,0.0,0.0,5.0,9.0,0.0,6.0,5.0,1.0,4.0,0.0,1.0,0.0,1.0,7.0
6,4.0,0.0,0.0,8.0,0.0,0.0,6.0,13.0,0.0,8.0,5.0,0.0,4.0,0.0,2.0,0.0,3.0,9.0
7,5.0,0.0,0.0,8.0,0.0,0.0,18.0,18.0,0.0,8.0,6.0,0.0,8.0,2.0,2.0,0.0,1.0,18.0
8,9.0,0.0,0.0,8.0,0.0,0.0,5.0,16.0,0.0,5.0,6.0,1.0,9.0,2.0,2.0,0.0,5.0,17.0
9,8.0,0.0,0.0,7.0,0.0,0.0,6.0,16.0,0.0,3.0,8.0,2.0,6.0,2.0,2.0,0.0,2.0,14.0
10,6.0,0.0,0.0,6.0,0.0,0.0,14.0,15.0,0.0,8.0,11.0,1.0,4.0,2.0,2.0,0.0,2.0,11.0
11,2.0,0.0,0.0,7.0,0.0,0.0,12.0,17.0,0.0,6.0,5.0,1.0,5.0,1.0,1.0,0.0,1.0,12.0
12,4.0,0.0,0.0,4.0,0.0,0.0,9.0,18.0,0.0,9.0,9.0,0.0,7.0,1.0,2.0,0.0,4.0,13.0
13,6.0,0.0,0.0,10.0,0.0,0.0,11.0,16.0,0.0,8.0,7.0,1.0,8.0,1.0,3.0,0.0,2.0,19.0
14,8.0,0.0,0.0,11.0,1.0,0.0,15.0,15.0,0.0,6.0,10.0,1.0,10.0,2.0,3.0,0.0,1.0,18.0
15,6.0,1.0,0.0,11.0,0.0,0.0,9.0,15.0,0.0,8.0,10.0,0.0,8.0,3.0,3.0,0.0,1.0,18.0
16,5.0,0.0,0.0,9.0,0.0,0.0,8.0,17.0,0.0,5.0,10.0,0.0,6.0,2.0,3.0,0.0,0.0,17.0
17,6.0,0.0,0.0,7.0,0.0,0.0,13.0,10.0,0.0,7.0,6.0,1.0,4.0,0.0,2.0,0.0,0.0,10.0
18,4.0,0.0,0.0,7.0,0.0,0.0,14.0,16.0,0.0,10.0,7.0,0.0,7.0,3.0,3.0,0.0,1.0,13.0
19,6.0,0.0,0.0,6.0,0.0,0.0,12.0,17.0,0.0,10.0,6.0,1.0,9.0,2.0,2.0,0.0,1.0,17.0
20,6.0,0.0,0.0,4.0,0.0,0.0,7.0,12.0,0.0,6.0,5.0,1.0,9.0,3.0,3.0,0.0,0.0,20.0
21,2.0,0.0,0.0,4.0,0.0,0.0,3.0,14.0,0.0,8.0,6.0,1.0,5.0,1.0,3.0,0.0,0.0,9.0
22,1.0,0.0,0.0,6.0,0.0,0.0,7.0,10.0,0.0,9.0,3.0,1.0,4.0,1.0,2.0,0.0,0.0,7.0
23,1.0,0.0,0.0,9.0,0.0,0.0,5.0,12.0,0.0,4.0,4.0,0.0,7.0,4.0,2.0,0.0,0.0,7.0
24,0.0,0.0,0.0,8.0,0.0,0.0,4.0,10.0,0.0,9.0,3.0,0.0,6.0,2.0,4.0,0.0,0.0,10.0
