,C ATM,C CS-11,C CS-12,C CS-4,C CS-P.Valdivia,C Granulacion,C NPT 1-2,C NPT3,C NPT4,C PTS,C Prilado,C Secado L-3,C Secado L-4,Galpones,Losa Envasado,Romana 3,Romana Mto,Romana Salitre
1,0,0,0,4.0,0,0.0,0,5.0,0,0,0.0,0,0.0,0,0,0.0,0.0,0.0
2,0,0,0,1.0,0,0.0,0,3.0,0,0,0.0,0,0.0,0,0,0.0,0.0,0.0
3,0,0,0,6.0,0,0.0,0,8.0,0,0,0.0,0,1.0,0,0,1.0,0.0,0.0
4,0,0,0,7.0,0,0.0,0,8.0,0,0,0.0,0,0.0,0,0,0.0,0.0,0.0
6,0,0,0,4.0,0,1.0,0,5.0,0,0,0.0,0,1.0,0,0,0.0,0.0,0.0
7,0,0,0,6.0,0,0.0,0,9.0,0,0,0.0,0,0.0,0,0,1.0,0.0,0.0
8,0,0,0,6.0,0,0.0,0,7.0,0,0,0.0,0,0.0,0,0,1.0,0.0,0.0
9,0,0,0,5.0,0,0.0,0,8.0,0,0,1.0,0,0.0,0,0,1.0,1.0,0.0
10,0,0,0,6.0,0,0.0,0,9.0,0,0,0.0,0,0.0,0,0,0.0,0.0,0.0
11,0,0,0,5.0,0,0.0,0,5.0,0,0,0.0,0,0.0,0,0,0.0,0.0,0.0
12,0,0,0,4.0,0,0.0,0,7.0,0,0,0.0,0,0.0,0,0,0.0,0.0,0.0
13,0,0,0,7.0,0,0.0,0,9.0,0,0,0.0,0,0.0,0,0,1.0,0.0,0.0
14,0,0,0,6.0,0,0.0,0,9.0,0,0,2.0,0,0.0,0,0,1.0,0.0,0.0
15,0,0,0,6.0,0,1.0,0,7.0,0,0,1.0,0,0.0,0,0,2.0,0.0,0.0
16,0,0,0,7.0,0,0.0,0,7.0,0,0,1.0,0,0.0,0,0,1.0,0.0,0.0
17,0,0,0,5.0,0,0.0,0,5.0,0,0,0.0,0,0.0,0,0,0.0,0.0,0.0
18,0,0,0,4.0,0,0.0,0,5.0,0,0,0.0,0,0.0,0,0,0.0,0.0,0.0
19,0,0,0,6.0,0,0.0,0,7.0,0,0,0.0,0,0.0,0,0,0.0,0.0,1.0
20,0,0,0,5.0,0,0.0,0,7.0,0,0,0.0,0,1.0,0,0,1.0,0.0,0.0
21,0,0,0,5.0,0,0.0,0,7.0,0,0,0.0,0,0.0,0,0,1.0,0.0,0.0
22,0,0,0,7.0,0,0.0,0,9.0,0,0,0.0,0,0.0,0,0,0.0,0.0,0.0
23,0,0,0,7.0,0,0.0,0,9.0,0,0,0.0,0,0.0,0,0,0.0,1.0,0.0
5,0,0,0,3.0,0,0.0,0,5.0,0,0,0.0,0,0.0,0,0,1.0,0.0,0.0
24,0,0,0,4.0,0,0.0,0,7.0,0,0,0.0,0,0.0,0,0,0.0,0.0,0.0
