,block,horas,camiones,Monetizacion [Millones]
1,1.0,28.983333333333334,1.8114583333333334,0.601177734375
2,2.0,82.6,5.1625,1.7133046874999998
3,3.0,192.63333333333333,12.039583333333333,3.99563671875
4,4.0,576.4666666666667,36.02916666666667,11.9571796875
5,5.0,1344.3166666666666,84.01979166666666,27.884068359375
6,6.0,1641.7166666666667,102.60729166666667,34.052794921875005
7,7.0,1335.4166666666665,83.46354166666666,27.699462890625
8,8.0,1157.8333333333333,72.36458333333333,24.01599609375
9,9.0,1184.75,74.046875,24.574306640625004
10,10.0,1697.0833333333335,106.06770833333334,35.201220703125
11,11.0,2141.1833333333334,133.82395833333334,44.412826171875
12,12.0,1855.0,115.9375,38.4767578125
13,13.0,1660.5166666666664,103.78229166666665,34.442748046874996
14,14.0,1430.5833333333335,89.41145833333334,29.673427734374997
15,15.0,1209.5166666666667,75.59479166666667,25.088021484375
16,16.0,1485.7,92.85625,30.816667968749996
17,17.0,2611.833333333333,163.23958333333331,54.17513671875
18,18.0,2465.4666666666667,154.09166666666667,51.139171874999995
19,19.0,1254.85,78.428125,26.028333984375003
20,20.0,618.8499999999999,38.678124999999994,12.836302734375
21,21.0,367.51666666666665,22.969791666666666,7.623099609375
22,22.0,444.5,27.78125,9.21990234375
23,23.0,315.6166666666667,19.726041666666667,6.546580078125
24,24.0,6.733333333333334,0.4208333333333334,0.1396640625
