,block,horas,camiones,Monetizacion [Millones]
1,1.0,17.3,1.08125,0.35883984375
2,2.0,33.18333333333333,2.073958333333333,0.6882949218749999
3,3.0,63.78333333333333,3.986458333333333,1.323005859375
4,4.0,166.61666666666667,10.413541666666667,3.455994140625
5,5.0,488.6333333333333,30.539583333333333,10.13532421875
6,6.0,676.2333333333333,42.264583333333334,14.026558593750002
7,7.0,531.9333333333333,33.24583333333333,11.033460937499997
8,8.0,464.43333333333334,29.027083333333334,9.63336328125
9,9.0,482.05,30.128125,9.998771484375
10,10.0,728.9833333333333,45.561458333333334,15.120708984375002
11,11.0,908.1666666666666,56.760416666666664,18.83736328125
12,12.0,703.8,43.9875,14.598351562499998
13,13.0,622.9333333333333,38.93333333333333,12.921
14,14.0,582.0166666666667,36.376041666666666,12.072298828124998
15,15.0,498.21666666666664,31.138541666666665,10.334103515625
16,16.0,581.5,36.34375,12.06158203125
17,17.0,1256.0166666666667,78.50104166666667,26.052533203125
18,18.0,1267.6333333333334,79.22708333333334,26.29348828125
19,19.0,603.1166666666667,37.69479166666667,12.509958984375
20,20.0,293.7,18.35625,6.09198046875
21,21.0,181.11666666666667,11.319791666666667,3.756755859375
22,22.0,198.0,12.375,4.106953125
23,23.0,150.71666666666667,9.419791666666667,3.126193359375
24,24.0,4.166666666666667,0.2604166666666667,0.08642578125
