,Mes,zona,Horas Perdidas,Turnos Camion,Precio Min [Millones CLP],Precio Max [Millones CLP],Precio Promedio [Millones CLP]
0,Enero,C Secado L-3,7.683333333333334,0.48020833333333335,0.13457838541666667,0.18415989583333334,0.15936914062500002
1,Febrero,C Secado L-3,48.71666666666667,3.044791666666667,0.8533028645833332,1.1676776041666668,1.010490234375
2,Marzo,C Secado L-3,17.333333333333332,1.0833333333333333,0.3036041666666666,0.4154583333333333,0.35953124999999997
3,Abril,C Secado L-3,12.499999999999998,0.7812499999999999,0.2189453125,0.29960937500000007,0.25927734375
4,Mayo,C Secado L-3,40.05,2.503125,0.7015007812499999,0.9599484375,0.830724609375
5,Junio,C Secado L-3,12.35,0.771875,0.21631796874999998,0.29601406249999995,0.25616601562499997
6,Julio,C Secado L-3,2.833333333333333,0.17708333333333331,0.049627604166666665,0.06791145833333333,0.05876953124999999
7,Agosto,C Secado L-3,3.3166666666666664,0.20729166666666665,0.05809348958333334,0.07949635416666667,0.068794921875
8,Septiembre,C Secado L-3,4.166666666666667,0.2604166666666667,0.07298177083333333,0.09986979166666668,0.08642578125
9,Octubre,C Secado L-3,8.533333333333333,0.5333333333333333,0.14946666666666664,0.20453333333333332,0.177
10,Noviembre,C Secado L-3,16.5,1.03125,0.28900781249999996,0.395484375,0.34224609375
11,Diciembre,C Secado L-3,11.266666666666666,0.7041666666666666,0.19734270833333334,0.27004791666666667,0.2336953125
12,Enero,C NPT3,2063.5116666666668,128.96947916666667,36.143696536458336,49.459795260416655,42.801745898437495
13,Febrero,C NPT3,140.51333333333335,8.782083333333334,2.4611788541666666,3.3679289583333327,2.9145539062499997
14,Marzo,C NPT3,1857.0950000000003,116.06843750000002,32.528179609374995,44.51224578125,38.520212695312495
15,Abril,C NPT3,2159.351666666667,134.95947916666668,37.822394036458334,51.75696026041666,44.7896771484375
16,Mayo,C NPT3,1920.6499999999999,120.04062499999999,33.64138515625001,46.035579687500004,39.83848242187501
17,Junio,C NPT3,1997.4733333333331,124.84208333333332,34.98699385416666,47.876938958333334,41.43196640625
18,Julio,C NPT3,727.0866666666668,45.442916666666676,12.735377395833336,17.427358541666663,15.08136796875
19,Agosto,C NPT3,832.3216666666667,52.02010416666667,14.578634192708336,19.94970994791667,17.264172070312505
20,Septiembre,C NPT3,913.1766666666668,57.07354166666668,15.994860052083334,21.887703229166664,18.941281640625
21,Octubre,C NPT3,1096.8933333333337,68.55583333333335,19.212772291666663,26.291162083333333,22.7519671875
22,Noviembre,C NPT3,964.4500000000002,60.27812500000001,16.892944531250006,23.116660937500008,20.004802734375005
23,Diciembre,C NPT3,507.41000000000014,31.71312500000001,8.88760328125,12.1619834375,10.524793359375
24,Enero,C Prilado,51.88666666666667,3.242916666666667,0.9088273958333335,1.2436585416666663,1.07624296875
25,Febrero,C Prilado,60.10333333333334,3.7564583333333337,1.0527474479166667,1.440601770833334,1.2466746093750003
26,Marzo,C Prilado,29.696666666666665,1.8560416666666666,0.5201556770833333,0.7117919791666665,0.6159738281249999
27,Abril,C Prilado,35.45666666666667,2.216041666666667,0.6210456770833335,0.8498519791666668,0.7354488281250001
28,Mayo,C Prilado,55.82666666666668,3.4891666666666676,0.9778389583333336,1.3380954166666668,1.1579671875000002
29,Junio,C Prilado,84.51333333333334,5.2820833333333335,1.480303854166667,2.0256789583333332,1.75299140625
30,Julio,C Prilado,17.426666666666662,1.0891666666666664,0.3052389583333333,0.4176954166666667,0.3614671875
31,Agosto,C Prilado,33.07333333333334,2.0670833333333336,0.5793001041666667,0.7927264583333333,0.6860132812499999
32,Septiembre,C Prilado,24.530000000000005,1.5331250000000003,0.4296582812500001,0.5879534374999998,0.508805859375
33,Octubre,C Prilado,22.233333333333338,1.3895833333333336,0.38943072916666666,0.5329052083333334,0.46116796875000005
34,Noviembre,C Prilado,43.750000000000014,2.734375000000001,0.7663085937499998,1.0486328125000002,0.907470703125
35,Diciembre,C Prilado,40.14000000000001,2.5087500000000005,0.7030771874999999,0.962105625,0.8325914062499999
36,Enero,C ATM,7.548333333333333,0.4717708333333333,0.13221377604166662,0.18092411458333335,0.15656894531249999
37,Febrero,C ATM,27.781666666666666,1.7363541666666666,0.4866132552083333,0.6658918229166667,0.5762525390625
38,Marzo,C ATM,11.216666666666665,0.7010416666666666,0.19646692708333335,0.2688494791666666,0.232658203125
39,Abril,C ATM,37.85333333333333,2.3658333333333332,0.6630247916666667,0.9072970833333334,0.7851609375
40,Mayo,C ATM,35.473333333333336,2.2170833333333335,0.6213376041666666,0.8502514583333334,0.73579453125
41,Junio,C ATM,50.28166666666668,3.1426041666666675,0.8807148177083335,1.2051886979166666,1.0429517578125
42,Julio,C ATM,11.903333333333334,0.7439583333333334,0.20849432291666667,0.2853080208333333,0.246901171875
43,Agosto,C ATM,7.653333333333334,0.4783333333333334,0.13405291666666666,0.18344083333333333,0.158746875
44,Septiembre,C ATM,41.76333333333333,2.610208333333333,0.7315108854166666,1.0010148958333334,0.8662628906250001
45,Octubre,C ATM,34.58500000000001,2.1615625000000005,0.6057778906249999,0.82895921875,0.7173685546874999
46,Noviembre,C ATM,45.56,2.8475,0.7980118749999999,1.0920162500000001,0.9450140625000001
47,Diciembre,C ATM,21.981666666666666,1.3738541666666666,0.38502263020833327,0.5268730729166666,0.45594785156249995
48,Enero,Losa Envasado,94.15666666666668,5.8847916666666675,1.6492128645833335,2.256817604166667,1.9530152343750005
49,Febrero,Losa Envasado,302.22666666666663,18.889166666666664,5.293688958333333,7.2439954166666665,6.2688421875
50,Marzo,Losa Envasado,187.85333333333332,11.740833333333333,3.2903685416666666,4.502609583333333,3.8964890624999997
51,Abril,Losa Envasado,449.0633333333332,28.066458333333326,7.865624947916667,10.763486770833333,9.314555859375
52,Mayo,Losa Envasado,374.03,23.376875,6.55136921875,8.965031562500002,7.758200390625001
53,Junio,Losa Envasado,260.37666666666667,16.273541666666667,4.560660052083334,6.240903229166666,5.400781640625
54,Julio,Losa Envasado,6.55,0.409375,0.11472734375,0.15699531249999998,0.13586132812499999
55,Agosto,Losa Envasado,1.49,0.093125,0.02609828125,0.0357134375,0.030905859375
56,Septiembre,Losa Envasado,50.623333333333335,3.1639583333333334,0.8866993229166668,1.2133780208333336,1.050038671875
57,Octubre,Losa Envasado,26.42,1.65125,0.4627628125,0.633254375,0.54800859375
58,Noviembre,Losa Envasado,123.25999999999999,7.703749999999999,2.1589759375,2.9543881249999995,2.55668203125
59,Diciembre,Losa Envasado,158.95999999999998,9.934999999999999,2.78428375,3.8100725,3.2971781250000003
60,Enero,Galpones,0.18833333333333335,0.011770833333333335,0.003298776041666667,0.0045141145833333335,0.0039064453125
61,Febrero,Galpones,0.46499999999999997,0.029062499999999998,0.008144765625,0.01114546875,0.0096451171875
62,Marzo,Galpones,7.401666666666667,0.4626041666666667,0.12964481770833336,0.1774086979166667,0.15352675781250003
63,Abril,Galpones,89.08000000000001,5.567500000000001,1.560291875,2.1351362499999995,1.8477140624999997
64,Mayo,Galpones,14.178333333333331,0.8861458333333332,0.24834236979166668,0.3398369270833333,0.29408964843749996
65,Junio,Galpones,12.55,0.784375,0.21982109375000003,0.3008078125,0.260314453125
66,Julio,Galpones,0.0,0.0,0.0,0.0,0.0
67,Agosto,Galpones,0.0,0.0,0.0,0.0,0.0
68,Septiembre,Galpones,8.581666666666667,0.5363541666666667,0.15031325520833333,0.20569182291666666,0.1780025390625
69,Octubre,Galpones,22.99166666666667,1.436979166666667,0.4027134114583333,0.5510815104166666,0.47689746093749996
70,Noviembre,Galpones,130.10500000000002,8.131562500000001,2.2788703906250007,3.1184542187499997,2.6986623046875002
71,Diciembre,Galpones,74.21166666666667,4.638229166666667,1.2998637239583335,1.7787608854166665,1.5393123046875
72,Enero,C NPT4,3.55,0.221875,0.062180468749999995,0.0850890625,0.073634765625
73,Febrero,C NPT4,55.28333333333333,3.455208333333333,0.9683221354166669,1.3250723958333337,1.1466972656250003
74,Marzo,C NPT4,26.98333333333333,1.6864583333333332,0.4726299479166667,0.6467567708333335,0.5596933593750001
75,Abril,C NPT4,19.650000000000002,1.2281250000000001,0.3441820312500001,0.47098593750000006,0.4075839843750001
76,Mayo,C NPT4,8.35,0.521875,0.14625546875,0.20013906249999996,0.17319726562499999
77,Junio,C NPT4,26.433333333333334,1.6520833333333333,0.4629963541666667,0.6335739583333333,0.54828515625
78,Julio,C NPT4,1.9166666666666667,0.11979166666666667,0.03357161458333333,0.04594010416666667,0.039755859375
79,Agosto,C NPT4,0.0,0.0,0.0,0.0,0.0
80,Septiembre,C NPT4,0.0,0.0,0.0,0.0,0.0
81,Octubre,C NPT4,12.083333333333332,0.7552083333333333,0.2116471354166667,0.2896223958333334,0.25063476562500003
82,Noviembre,C NPT4,7.466666666666667,0.4666666666666667,0.13078333333333333,0.17896666666666664,0.15487499999999998
83,Diciembre,C NPT4,0.1,0.00625,0.0017515625,0.0023968749999999997,0.0020742187499999997
84,Enero,C CS-11,0.0,0.0,0.0,0.0,0.0
85,Febrero,C CS-11,0.935,0.0584375,0.016377109375,0.022410781250000004,0.0193939453125
86,Marzo,C CS-11,0.0,0.0,0.0,0.0,0.0
87,Abril,C CS-11,5.170000000000001,0.32312500000000005,0.09055578125000002,0.12391843749999999,0.107237109375
88,Mayo,C CS-11,1.6,0.1,0.028025,0.03835,0.0331875
89,Junio,C CS-11,0.0,0.0,0.0,0.0,0.0
90,Julio,C CS-11,0.0,0.0,0.0,0.0,0.0
91,Agosto,C CS-11,0.0,0.0,0.0,0.0,0.0
92,Septiembre,C CS-11,0.4666666666666667,0.029166666666666667,0.008173958333333333,0.011185416666666668,0.0096796875
93,Octubre,C CS-11,0.0,0.0,0.0,0.0,0.0
94,Noviembre,C CS-11,0.0,0.0,0.0,0.0,0.0
95,Diciembre,C CS-11,0.0,0.0,0.0,0.0,0.0
96,Enero,C CS-12,0.3,0.01875,0.0052546875,0.007190625,0.00622265625
97,Febrero,C CS-12,7.4,0.4625,0.12961562499999998,0.17736875000000002,0.1534921875
98,Marzo,C CS-12,3.5666666666666664,0.22291666666666665,0.062472395833333326,0.08548854166666667,0.07398046875
99,Abril,C CS-12,0.016666666666666666,0.0010416666666666667,0.00029192708333333333,0.00039947916666666663,0.000345703125
100,Mayo,C CS-12,2.5333333333333337,0.15833333333333335,0.04437291666666668,0.06072083333333334,0.05254687500000001
101,Junio,C CS-12,2.216666666666667,0.13854166666666667,0.03882630208333333,0.05313072916666667,0.045978515625
102,Julio,C CS-12,0.0,0.0,0.0,0.0,0.0
103,Agosto,C CS-12,0.016666666666666666,0.0010416666666666667,0.00029192708333333333,0.00039947916666666663,0.000345703125
104,Septiembre,C CS-12,0.0,0.0,0.0,0.0,0.0
105,Octubre,C CS-12,6.6,0.4125,0.11560312500000001,0.15819375000000002,0.13689843750000003
106,Noviembre,C CS-12,0.0,0.0,0.0,0.0,0.0
107,Diciembre,C CS-12,0.0,0.0,0.0,0.0,0.0
108,Enero,C PTS,0.0,0.0,0.0,0.0,0.0
109,Febrero,C PTS,45.86666666666667,2.8666666666666667,0.8033833333333333,1.0993666666666666,0.951375
110,Marzo,C PTS,96.75,6.046875,1.6946367187500002,2.3189765625,2.0068066406250002
111,Abril,C PTS,5.723333333333333,0.3577083333333333,0.10024776041666665,0.13718114583333332,0.11871445312499998
112,Mayo,C PTS,37.11666666666667,2.3197916666666667,0.6501216145833333,0.8896401041666667,0.769880859375
113,Junio,C PTS,172.5266666666667,10.782916666666669,3.0219123958333327,4.135248541666667,3.57858046875
114,Julio,C PTS,84.1,5.25625,1.4730640625000002,2.015771875,1.74441796875
115,Agosto,C PTS,158.39000000000001,9.899375000000001,2.77429984375,3.7964103125000004,3.2853550781250003
116,Septiembre,C PTS,114.55333333333333,7.159583333333333,2.0064732291666667,2.7457002083333335,2.37608671875
117,Octubre,C PTS,68.17333333333333,4.260833333333333,1.1940985416666667,1.6340295833333331,1.4140640625
118,Noviembre,C PTS,1.65,0.103125,0.02890078125,0.0395484375,0.034224609375
119,Diciembre,C PTS,3.4699999999999998,0.21687499999999998,0.060779218749999996,0.08317156249999999,0.071975390625
120,Enero,C Secado L-4,153.55833333333334,9.597395833333334,2.689670182291667,3.6806013020833332,3.1851357421875
121,Febrero,C Secado L-4,110.43333333333334,6.902083333333334,1.9343088541666669,2.646948958333333,2.2906289062500003
122,Marzo,C Secado L-4,400.025,25.0015625,7.006687890624999,9.58809921875,8.297393554687499
123,Abril,C Secado L-4,222.59166666666667,13.911979166666667,3.898832161458333,5.335244010416666,4.6170380859375
124,Mayo,C Secado L-4,499.8833333333334,31.242708333333336,8.755769010416666,11.981578645833332,10.368673828124999
125,Junio,C Secado L-4,127.19166666666668,7.949479166666667,2.2278415364583335,3.048625260416667,2.6382333984375004
126,Julio,C Secado L-4,166.10833333333335,10.381770833333334,2.9094912760416665,3.9814091145833337,3.4454501953125
127,Agosto,C Secado L-4,145.45833333333334,9.091145833333334,2.547793619791667,3.4864544270833333,3.0171240234375
128,Septiembre,C Secado L-4,241.075,15.0671875,4.222579296875001,5.778266406249998,5.000422851562499
129,Octubre,C Secado L-4,171.80833333333337,10.738020833333335,3.0093303385416665,4.118030989583334,3.5636806640625
130,Noviembre,C Secado L-4,404.6416666666667,25.29010416666667,7.087551692708335,9.698754947916667,8.3931533203125
131,Diciembre,C Secado L-4,125.69999999999999,7.856249999999999,2.2017140625000002,3.012871875,2.6072929687500004
132,Enero,C CS-P.Valdivia,0.0,0.0,0.0,0.0,0.0
133,Febrero,C CS-P.Valdivia,0.49333333333333335,0.030833333333333334,0.008641041666666668,0.011824583333333335,0.0102328125
134,Marzo,C CS-P.Valdivia,1.9216666666666666,0.12010416666666666,0.03365919270833333,0.04605994791666666,0.039859570312499995
135,Abril,C CS-P.Valdivia,4.093333333333333,0.2558333333333333,0.07169729166666666,0.09811208333333332,0.08490468749999999
136,Mayo,C CS-P.Valdivia,3.0149999999999997,0.18843749999999998,0.052809609375,0.07226578125,0.0625376953125
137,Junio,C CS-P.Valdivia,14.795000000000002,0.9246875000000001,0.25914367187500004,0.35461765624999997,0.30688066406250003
138,Julio,C CS-P.Valdivia,0.0,0.0,0.0,0.0,0.0
139,Agosto,C CS-P.Valdivia,0.8833333333333333,0.05520833333333333,0.015472135416666666,0.021172395833333333,0.018322265625
140,Septiembre,C CS-P.Valdivia,0.06666666666666667,0.004166666666666667,0.0011677083333333333,0.0015979166666666665,0.0013828125
141,Octubre,C CS-P.Valdivia,2.3266666666666667,0.14541666666666667,0.040753020833333334,0.05576729166666667,0.048260156250000005
142,Noviembre,C CS-P.Valdivia,4.088333333333334,0.25552083333333336,0.07160971354166666,0.09799223958333333,0.08480097656249999
143,Diciembre,C CS-P.Valdivia,1.005,0.0628125,0.017603203125,0.024088593749999998,0.0208458984375
144,Enero,C CS-4,448.0066666666667,28.00041666666667,7.847116770833333,10.73815979166667,9.292638281250001
145,Febrero,C CS-4,946.9900000000002,59.186875000000015,16.587121718750005,22.698166562499996,19.642644140625002
146,Marzo,C CS-4,112.52666666666667,7.032916666666667,1.9709748958333335,2.6971235416666675,2.3340492187500006
147,Abril,C CS-4,249.62333333333336,15.601458333333335,4.372308697916667,5.983159270833334,5.177733984375001
148,Mayo,C CS-4,285.8533333333333,17.86583333333333,5.006899791666667,6.851547083333332,5.929223437499999
149,Junio,C CS-4,358.52666666666664,22.407916666666665,6.279818645833333,8.593436041666667,7.436627343750001
150,Julio,C CS-4,6.84,0.4275,0.119806875,0.16394625,0.1418765625
151,Agosto,C CS-4,17.766666666666666,1.1104166666666666,0.3111942708333333,0.42584479166666667,0.36851953125
152,Septiembre,C CS-4,142.88666666666668,8.930416666666668,2.502749270833333,3.4248147916666665,2.96378203125
153,Octubre,C CS-4,516.1733333333333,32.26083333333333,9.041098541666667,12.372029583333335,10.7065640625
154,Noviembre,C CS-4,348.68000000000006,21.792500000000004,6.1073481250000015,8.35742375,7.232385937500001
155,Diciembre,C CS-4,1141.2166666666665,71.32604166666665,19.989123177083336,27.353536979166666,23.671330078125003
156,Enero,C NPT 1-2,25.479999999999997,1.5924999999999998,0.446298125,0.6107237499999999,0.5285109374999999
157,Febrero,C NPT 1-2,45.27666666666667,2.829791666666667,0.7930491145833333,1.0852251041666667,0.9391371093750001
158,Marzo,C NPT 1-2,1.2066666666666666,0.07541666666666666,0.02113552083333333,0.028922291666666662,0.025028906249999996
159,Abril,C NPT 1-2,9.576666666666664,0.5985416666666665,0.16774130208333332,0.22954072916666662,0.19864101562499997
160,Mayo,C NPT 1-2,2.9266666666666667,0.18291666666666667,0.051262395833333335,0.07014854166666666,0.06070546875
161,Junio,C NPT 1-2,28.653333333333336,1.7908333333333335,0.5018810416666666,0.6867845833333331,0.5943328124999998
162,Julio,C NPT 1-2,62.91333333333332,3.9320833333333325,1.1019663541666664,1.5079539583333332,1.30496015625
163,Agosto,C NPT 1-2,37.94333333333334,2.371458333333334,0.6646011979166665,0.9094542708333333,0.7870277343749998
164,Septiembre,C NPT 1-2,99.39333333333333,6.212083333333333,1.7409363541666667,2.382333958333333,2.06163515625
165,Octubre,C NPT 1-2,46.93666666666667,2.9335416666666667,0.8221250520833334,1.1250132291666668,0.9735691406250001
166,Noviembre,C NPT 1-2,94.90333333333331,5.931458333333332,1.6622911979166664,2.2747142708333334,1.968502734375
167,Diciembre,C NPT 1-2,35.45333333333333,2.2158333333333333,0.6209872916666668,0.8497720833333332,0.7353796875
168,Enero,C Granulacion,0.4833333333333333,0.03020833333333333,0.008465885416666666,0.011584895833333332,0.010025390624999998
169,Febrero,C Granulacion,4.3,0.26875,0.07531718750000001,0.103065625,0.08919140625
170,Marzo,C Granulacion,6.283333333333333,0.3927083333333333,0.11005651041666667,0.15060364583333335,0.13033007812500003
171,Abril,C Granulacion,1.5499999999999998,0.09687499999999999,0.027149218749999995,0.0371515625,0.032150390625
172,Mayo,C Granulacion,1.6333333333333333,0.10208333333333333,0.02860885416666667,0.03914895833333334,0.03387890625000001
173,Junio,C Granulacion,0.0,0.0,0.0,0.0,0.0
174,Julio,C Granulacion,9.016666666666667,0.5635416666666667,0.15793255208333334,0.21611822916666665,0.187025390625
175,Agosto,C Granulacion,16.066666666666666,1.0041666666666667,0.2814177083333333,0.38509791666666665,0.3332578125
176,Septiembre,C Granulacion,0.0,0.0,0.0,0.0,0.0
177,Octubre,C Granulacion,0.25,0.015625,0.00437890625,0.005992187499999999,0.005185546875
178,Noviembre,C Granulacion,9.9,0.61875,0.1734046875,0.237290625,0.20534765625
179,Diciembre,C Granulacion,2.6500000000000004,0.16562500000000002,0.04641640625,0.06351718749999999,0.054966796874999994
180,Enero,Romana Salitre,20.503333333333334,1.2814583333333334,0.35912869791666663,0.49143927083333333,0.425283984375
181,Febrero,Romana Salitre,269.88666666666666,16.867916666666666,4.7272336458333335,6.468846041666667,5.59803984375
182,Marzo,Romana Salitre,174.93,10.933125,3.064008281250001,4.192853437499999,3.6284308593750003
183,Abril,Romana Salitre,196.75,12.296875,3.446199218749999,4.715851562500001,4.081025390625
184,Mayo,Romana Salitre,51.89,3.243125,0.9088857812500001,1.2437384375,1.076312109375
185,Junio,Romana Salitre,86.24666666666666,5.390416666666666,1.5106642708333333,2.0672247916666677,1.7889445312500005
186,Julio,Romana Salitre,40.66000000000001,2.5412500000000007,0.7121853125,0.974569375,0.84337734375
187,Agosto,Romana Salitre,71.05333333333333,4.440833333333333,1.2445435416666668,1.7030595833333335,1.4738015625000003
188,Septiembre,Romana Salitre,32.760000000000005,2.0475000000000003,0.5738118750000001,0.78521625,0.6795140625
189,Octubre,Romana Salitre,58.38666666666668,3.6491666666666673,1.0226789583333336,1.3994554166666664,1.2110671874999999
190,Noviembre,Romana Salitre,57.780000000000015,3.611250000000001,1.0120528125000001,1.3849143750000004,1.1984835937500002
191,Diciembre,Romana Salitre,88.66,5.54125,1.5529353124999998,2.125069375,1.8390023437499998
192,Enero,Romana Mto,4.15,0.259375,0.07268984375,0.09947031250000002,0.08608007812500001
193,Febrero,Romana Mto,9.6,0.6,0.16815,0.23010000000000005,0.19912500000000002
194,Marzo,Romana Mto,29.90666666666667,1.8691666666666669,0.5238339583333333,0.7168254166666665,0.6203296875
195,Abril,Romana Mto,7.18,0.44875,0.1257621875,0.17209562500000003,0.14892890625000002
196,Mayo,Romana Mto,6.7,0.41875,0.11735468749999999,0.16059062500000001,0.13897265625
197,Junio,Romana Mto,23.28666666666667,1.4554166666666668,0.4078805208333333,0.5581522916666667,0.48301640625
198,Julio,Romana Mto,5.15,0.321875,0.09020546875,0.12343906249999997,0.106822265625
199,Agosto,Romana Mto,9.35,0.584375,0.16377109374999999,0.2241078125,0.193939453125
200,Septiembre,Romana Mto,3.3466666666666667,0.20916666666666667,0.05861895833333333,0.08021541666666668,0.0694171875
201,Octubre,Romana Mto,14.70666666666667,0.9191666666666669,0.25759645833333333,0.35250041666666665,0.3050484375
202,Noviembre,Romana Mto,11.953333333333331,0.7470833333333332,0.20937010416666668,0.2865064583333334,0.24793828125000003
203,Diciembre,Romana Mto,4.576666666666667,0.2860416666666667,0.08016317708333334,0.10969697916666668,0.09493007812500001
204,Enero,Romana 3,97.35666666666665,6.084791666666666,1.705262864583333,2.333517604166666,2.0193902343749994
205,Febrero,Romana 3,195.07000000000002,12.191875000000001,3.41677296875,4.6755840625,4.046178515625
206,Marzo,Romana 3,207.56,12.9725,3.6355431250000003,4.974953749999999,4.3052484374999995
207,Abril,Romana 3,70.10666666666665,4.381666666666666,1.2279620833333331,1.6803691666666662,1.4541656249999997
208,Mayo,Romana 3,57.86666666666665,3.616666666666666,1.0135708333333329,1.3869916666666666,1.2002812499999997
209,Junio,Romana 3,60.843333333333334,3.8027083333333334,1.0657090104166667,1.4583386458333336,1.2620238281250002
210,Julio,Romana 3,0.0,0.0,0.0,0.0,0.0
211,Agosto,Romana 3,0.0,0.0,0.0,0.0,0.0
212,Septiembre,Romana 3,0.0,0.0,0.0,0.0,0.0
213,Octubre,Romana 3,0.0,0.0,0.0,0.0,0.0
214,Noviembre,Romana 3,0.0,0.0,0.0,0.0,0.0
215,Diciembre,Romana 3,0.2,0.0125,0.003503125,0.00479375,0.0041484375
